<svg xmlns="http://www.w3.org/2000/svg" width="582.219" height="116.094" viewBox="0 0 582.219 116.094">
  <metadata><?xpacket begin="﻿" id="W5M0MpCehiHzreSzNTczkc9d"?>
<x:xmpmeta xmlns:x="adobe:ns:meta/" x:xmptk="Adobe XMP Core 5.6-c138 79.159824, 2016/09/14-01:09:01        ">
   <rdf:RDF xmlns:rdf="http://www.w3.org/1999/02/22-rdf-syntax-ns#">
      <rdf:Description rdf:about=""/>
   </rdf:RDF>
</x:xmpmeta>
                                                                                                    
                                                                                                    
                                                                                                    
                                                                                                    
                                                                                                    
                                                                                                    
                                                                                                    
                                                                                                    
                                                                                                    
                                                                                                    
                                                                                                    
                                                                                                    
                                                                                                    
                                                                                                    
                                                                                                    
                                                                                                    
                                                                                                    
                                                                                                    
                                                                                                    
                                                                                                    
                           
<?xpacket end="w"?></metadata>
<defs>
    <style>
      .cls-1 {
        fill: #2f2725;
        fill-rule: evenodd;
      }
    </style>
  </defs>
  <path id="創業60年を超える歴史と_東京建物グループの安定感_のコピー" data-name="創業60年を超える歴史と 東京建物グループの安定感 のコピー" class="cls-1" d="M73.333,418.739V405.348H57.764a7.658,7.658,0,0,0,.335-1.44H73.237V390.854H53.931c0,10.223.048,11.9-1.15,15.646a20.7,20.7,0,0,1-4.695,8.015l4.934,2.208a24.174,24.174,0,0,0,3.114-6.239v8.255h4.6v-1.392h8.1v1.392h4.5Zm-4.839-22.99H58.77v-1.584h9.725v1.584Zm0,4.7H58.53c0.1-.864.1-0.96,0.144-1.776h9.821v1.776Zm14.228-15.935c0-.576-0.814-0.72-1.246-0.768l-4.647-.432v24.334h4.791V385.67c0-.192.048-0.192,0.767-0.72A0.671,0.671,0,0,0,82.723,384.518ZM68.83,413.507h-8.1v-4.463h8.1v4.463ZM75.3,383.366a28.42,28.42,0,0,1-8.959-5.087,0.682,0.682,0,0,0,.1-0.288c0-.528-0.958-0.576-1.054-0.576l-5.222-.336c-1.773,3.984-6.324,7.871-10.779,9.743l3.545,3.648a42.213,42.213,0,0,0,4.647-3.168v2.448H69.884v-3.792a14.69,14.69,0,0,0,2.731,1.152Zm-5.94,2.3H59.584a33.745,33.745,0,0,0,3.928-3.935A32.756,32.756,0,0,0,69.357,385.67Zm21.654-6.815c0-.624-1.006-0.768-1.341-0.816l-4.886-.576V411.3c0,1.248-.671,1.248-1.054,1.248-1.006,0-3.162-.048-4.12-0.1l2.539,5.568c5.318-.1,7.713-0.528,7.713-5.136V380.151a1.218,1.218,0,0,1,.575-0.624A0.954,0.954,0,0,0,91.011,378.855ZM139.5,406.74v-4.368H121.916v-2.063h12.5v-3.888h-12.5v-2.064H137.15V390.23h-8.815c0.623-.96,1.1-1.728,1.725-2.88h9.389v-3.984h-6.994c0.287-.384,1.629-2.4,1.725-2.5a4.2,4.2,0,0,1,.958-0.432,0.587,0.587,0,0,0,.287-0.432,0.464,0.464,0,0,0-.335-0.384l-4.791-2.4a33.162,33.162,0,0,1-2.73,5.327l1.58,0.816h-3.018v-3.983a0.743,0.743,0,0,1,.384-0.528,0.611,0.611,0,0,0,.383-0.48,0.522,0.522,0,0,0-.527-0.432l-5.174-.672v6.095h-3.354v-3.743a1.029,1.029,0,0,1,.48-0.768,0.941,0.941,0,0,0,.383-0.624,0.507,0.507,0,0,0-.431-0.432l-5.318-.72v6.287h-3.785l2.012-1.248a28.607,28.607,0,0,0-4.072-5.087l-3.976,2.5a30.209,30.209,0,0,1,3.114,3.839H99.208v3.984h9.39c0.479,0.672.622,0.912,1.82,2.88h-8.959v4.127h15.283v2.064H104.478v3.888h12.264v2.063H99.208v4.368h13.749A41.678,41.678,0,0,1,99.208,414.9l4.359,3.888a51,51,0,0,0,13.175-9.023v8.543h5.174v-9.071c2.2,2.3,5.605,5.759,13.7,9.071l3.641-4.176c-5.366-1.536-8.959-3.263-13.223-7.391H139.5Zm-15.138-19.39a23.109,23.109,0,0,1-1.437,2.88h-7.139c-0.814-1.536-.862-1.68-1.485-2.88h10.061Zm45.42,16.942c0-6.479-4.742-11.327-10.587-11.327a8.023,8.023,0,0,0-7.138,3.744c0.575-4.7,1.341-10.847,6.467-10.847a4.317,4.317,0,0,1,4.408,4.128h6.323c-0.623-3.168-1.2-4.7-3.114-6.528a10.612,10.612,0,0,0-7.473-2.927c-12.5,0-12.839,16.078-12.839,19.774,0,7.2,2.635,16.558,12.264,16.558C165.755,416.867,169.779,410.052,169.779,404.292Zm-6.515.528c0,4.08-2.491,6.335-5.413,6.335-3.258,0-5.51-2.639-5.51-6.287,0-3.264,1.964-6.623,5.749-6.623C161.252,398.245,163.264,401.077,163.264,404.82Zm34.543-6.143c0-4.512-.574-9.167-2.97-13.007a10.336,10.336,0,0,0-9.2-5.135c-11.162,0-12.168,13.006-12.168,18.766,0,4.511,1.054,17.566,12.168,17.566C197.089,416.867,197.807,403.092,197.807,398.677Zm-6.611,0c0,10.319-2.06,13.006-5.557,13.006-3.114,0-5.653-1.919-5.605-13.006,0-10.607,2.3-12.959,5.509-12.959C188.705,385.718,191.2,387.59,191.2,398.677Zm53.419,10.511V404.1H229.956v-6.479h8.335v-4.944h-8.335v-5.759h12.359V382.07h-26.54a15.425,15.425,0,0,1,1.054-1.823,3.651,3.651,0,0,1,1.006-.384,0.573,0.573,0,0,0,.24-0.432,0.489,0.489,0,0,0-.336-0.432l-5.892-2.208a40.538,40.538,0,0,1-9.294,14.591l5.174,2.735a41.377,41.377,0,0,0,5.365-7.2h11.019v5.759H210.6V404.1h-6.9v5.088h20.408v9.455h6.036v-9.455h14.468Zm-20.5-5.088H216.4v-6.479h7.713V404.1Zm65.829-6.575-1.629-5.472c-2.252,1.008-2.875,1.3-8.48,3.936-1.1-3.168-3.209-4.847-6.515-4.847a9.254,9.254,0,0,0-4.12,1.007c0.815-1.247,1.2-1.919,2.731-4.751a100.621,100.621,0,0,0,11.449-1.824l0.336-5.375a40.4,40.4,0,0,1-9.39,2.447c0.24-.528,1.437-3.215,1.485-3.263,0.048,0,1.006-.432,1.1-0.48a0.558,0.558,0,0,0,.479-0.528c0-.336-0.814-0.432-0.958-0.48l-5.988-1.056a37.22,37.22,0,0,1-2.4,6.383,67.251,67.251,0,0,1-9.15-.192l0.575,4.992c2.012,0,3.5-.048,6.228-0.192a63.836,63.836,0,0,1-9.438,13.2l4.695,2.927c2.635-4.319,5.509-8.687,10.2-8.687,2.779,0,3.354,1.728,3.641,3.168-7.186,3.695-11.593,5.951-11.593,11.9a6.57,6.57,0,0,0,1.82,4.7c3.018,3.216,8.576,3.216,11.258,3.216a79.134,79.134,0,0,0,11.4-.72v-5.424a55.284,55.284,0,0,1-12.216,1.536c-3.5,0-7.186-.624-7.186-3.743,0-3.36,4.982-5.856,6.8-6.768-0.048,2.112-.1,4.464-0.24,7.2h5.557c0-1.632-.1-7.584-0.1-9.455C283.856,399.541,286.155,398.725,289.94,397.525Zm53.9,13.966a174.537,174.537,0,0,1-18.684,1.3c-5.365,0-7.857-1.2-9.581-2.111v-6.288h5.7v-5.231h-5.7v-3.264h6.611v-3.552l3.305,2.688h-2.443v15.695h5.078v-1.488h8.719v1.488h5.126V395.029H326.593a18.291,18.291,0,0,0,5.318-12.143h5.126c-0.335,6-1.868,6.1-3.21,6.1-0.862,0-1.724-.048-2.922-0.144l3.066,5.471c3.737-.1,6.084-0.336,7.33-4.415a46.143,46.143,0,0,0,1.676-11.615H321.563v4.607h4.887c-0.1,2.448-.384,5.664-4.264,8.064H315.1v-3.84h5.126v-4.9H315.1v-2.591c0-.288,1.1-1.1,1.1-1.344,0-.384-0.527-0.48-1.39-0.576l-5.078-.432v4.943H303.5v4.9h6.228v3.84h-6.946v4.943h7.665v10.463c-1.246-1.728-1.39-1.968-1.773-2.544,0.048-.288.336-2.352,0.431-2.927a2.839,2.839,0,0,0,.671-0.912c0-.336-0.383-0.432-1.15-0.528l-4.79-.528a39.163,39.163,0,0,1-4.216,16.942l5.174,1.824a51.848,51.848,0,0,0,2.635-7.823c5.461,6.239,9.581,7.727,17.629,7.727h16.049Zm-6.995-6.719h-8.719v-5.279h8.719v5.279Zm40.486-25.821a39.025,39.025,0,0,1-12.216-1.776l-0.287,5.519c3.449,1.1,6.276,1.3,12.264,1.3Zm10.731,32.828a24.318,24.318,0,0,1-6.946,1.008c-2.731,0-3.4-.72-3.4-2.639,0-.912.479-5.376,0.479-6.384a3.224,3.224,0,0,0-3.21-3.263,12.983,12.983,0,0,0-2.395.384c4.838-5.136,5.365-5.712,9.629-10.271l-3.114-4.128a58.368,58.368,0,0,1-17.773,3.6,22.6,22.6,0,0,1-3.4-.192l1.246,4.943c3.736-.048,6.85-0.336,13.941-2.16-2.156,2.88-3.929,5.232-7.809,9.695-4.5,5.136-7.09,7.728-10.635,11.135l4.407,3.36c2.108-2.5,5.413-6.383,7.952-9.215,1.246-1.344,2.2-2.352,3.593-2.352a2.089,2.089,0,0,1,2.156,2.256c0,0.72-.191,4.127-0.191,4.9,0,4.08,2.108,5.424,6.994,5.424a47.944,47.944,0,0,0,8.144-.72Zm48.008-8.255a10.57,10.57,0,0,0-10.635-10.607,38.068,38.068,0,0,0-4.647.288c6.946-7.1,7.761-7.871,10.635-10.271l-2.491-3.887c-4.551,1.776-12.695,2.4-14.516,2.4-1.485,0-4.216-.192-5.365-0.288l1.1,5.375a44.652,44.652,0,0,0,11.211-1.2c-7.665,9.311-12.744,13.583-17.726,17.326l4.024,4.224c2.683-2.736,6.9-7.007,9.869-8.591a12.97,12.97,0,0,1,5.461-1.2c3.114,0,7.761,1.536,7.761,6.287a8.46,8.46,0,0,1-3.162,6.384c-1.341-1.68-4.455-5.616-9.437-5.616a6.715,6.715,0,0,0-7.042,6.384c0,3.551,3.066,6.575,9.054,6.575C428.6,417.107,436.07,411.491,436.07,403.524Zm-12.935,8.591a13.6,13.6,0,0,1-3.258.432c-1.724,0-3.928-.48-3.928-2.159a2.112,2.112,0,0,1,2.395-2.016C421.075,408.372,422.512,411.011,423.135,412.115Zm67.506-14.206a27.759,27.759,0,0,1-7.426-6.144h6.467v-3.983h-7.9v-2.016a0.929,0.929,0,0,1,.335-0.72,0.588,0.588,0,0,0,.288-0.432c0-.432-0.959-0.48-1.485-0.528l-3.833-.192v3.888H473.2v3.983h2.4a16.966,16.966,0,0,1-2.587,3.5,18.2,18.2,0,0,1-4.647-3.5h3.162v-4.079H467.5V385.91a0.806,0.806,0,0,1,.431-0.624,0.625,0.625,0,0,0,.431-0.528c0-.528-0.719-0.576-1.533-0.624l-3.88-.192v3.744h-5.893c-0.048-1.92-.1-2.784-0.192-4.416h33.008v-4.943H451.261c0.336,3.887.767,11.471,0.767,15.55,0,13.391-2.875,18.43-4.935,22.126l5.222,1.584a29.738,29.738,0,0,0,2.923-7.775,61.9,61.9,0,0,0,1.676-10.8l2.4,2.16a21.618,21.618,0,0,0,3.641-3.888v3.792H467.5v-5.184a22.224,22.224,0,0,0,2.587,2.256,8.228,8.228,0,0,1-1.006.864l3.066,2.639-1.725-.1v11.567h-3.689v-7.967c0-.24.1-0.288,0.527-0.528,0.383-.24.383-0.336,0.383-0.48,0-.384-0.143-0.624-1.437-0.672l-4.838-.24v9.887h-4.695v4.464h33.63v-4.464H475.933v-3.791h10.731V405.2H475.933v-1.392a1.055,1.055,0,0,1,.479-0.768,0.643,0.643,0,0,0,.384-0.528c0-.576-1.054-0.672-1.629-0.72l-2.2-.1a23.614,23.614,0,0,0,4.12-4.8v4.08h4.695v-4.56a25.486,25.486,0,0,0,5.365,4.656Zm-28.792-6.144a20.566,20.566,0,0,1-4.839,5.52c0.048-1.44.048-1.824,0.048-5.52h4.791Zm54.091,4.176H504.97V388.31h10.97v7.631Zm24.72,16.846a69.566,69.566,0,0,1-8.719.624c-7.761,0-11.258-1.776-13.318-2.831,1.437-2.352,2.347-4.512,3.018-9.743h16.288V383.414H521.881v-3.5a1.183,1.183,0,0,1,.622-1.008,0.86,0.86,0,0,0,.48-0.672c0-.384-0.336-0.528-1.294-0.624l-5.749-.48v6.287H499.556v17.423h9.677l-4.024,2.975a30.31,30.31,0,0,0,5.174,6.912c-3.641,2.159-6.946,2.927-14.324,3.695l4.216,5.472c7.377-1.392,10.875-2.736,14.755-5.472,6.563,3.888,13.318,5.136,22.708,5.136Zm-8.671-16.846H521.881V388.31h10.108v7.631Zm-16.24,4.9a15.089,15.089,0,0,1-1.869,6.1,28.228,28.228,0,0,1-4.215-6.1h6.084Zm66.307,15.406V410.1a62.01,62.01,0,0,1-14.8,2.159c-5.03,0-8.815-1.679-8.815-5.135,0-3.216,3.546-5.664,5.7-7.007a72.011,72.011,0,0,1,17.726-7.584l-1.773-5.855c-5.892,2.784-6.515,3.072-12.024,5.663a5.839,5.839,0,0,1-2.779-3.263c-1.293-3.6-1.341-8.687-1.389-11.375l-6.132.912c1.533,9.167,1.772,10.559,2.443,12.143a15.121,15.121,0,0,0,2.827,4.319c-5.27,3.12-9.917,6.192-9.917,12.191a9.147,9.147,0,0,0,4.886,8.207c2.4,1.248,4.887,1.92,10.54,1.92A85.762,85.762,0,0,0,582.056,416.243ZM69.307,487.536c-7.761-3.695-11.019-6.1-14.18-9.359H64.42V462.339H51.773V459.8H69.259v-4.559H51.773V453.22a0.852,0.852,0,0,1,.527-0.672,0.863,0.863,0,0,0,.287-0.432c0-.192-0.144-0.432-0.719-0.48l-5.8-.384v3.984H28.586V459.8H46.072v2.544h-12.5v15.838h8.719c-5.653,5.9-9.2,7.968-14.42,9.839l4.168,3.84a43.466,43.466,0,0,0,14.037-10.607v11.327h5.7V481.441a41.585,41.585,0,0,0,13.749,10.223Zm-10.4-19.39H51.773v-2.207h7.138v2.207Zm0,6.144H51.773v-2.3h7.138v2.3Zm-12.839-6.144H39.03v-2.207h7.042v2.207Zm0,6.144H39.03v-2.3h7.042v2.3ZM113.05,476.4V462.771H83.013V476.4H94.99V486c0,0.864-.431,1.391-1.725,1.391a23.521,23.521,0,0,1-3.066-.287l2.347,5.519a20.582,20.582,0,0,0,6.084-.768c1.725-.576,2.108-2.544,2.108-4.128V476.4H113.05Zm-5.844-4.368H88.81v-4.847h18.4v4.847Zm11.4-12.047v-4.511H101.217V453.6a1.974,1.974,0,0,1,.863-0.72,0.519,0.519,0,0,0,.335-0.384,0.585,0.585,0,0,0-.623-0.48l-6.563-.768v4.224H77.456v4.511h41.152ZM116.6,487.3a59.4,59.4,0,0,0-9.629-10.031l-3.736,3.887a41.717,41.717,0,0,1,8.862,9.887Zm-23.761-6.336a0.688,0.688,0,0,0-.239-0.528l-5.126-3.215a38.138,38.138,0,0,1-9.246,10.75L83.3,490.9c3.5-3.12,4.359-4.223,8.24-9.119a1.118,1.118,0,0,1,.814-0.336A0.559,0.559,0,0,0,92.834,480.961Zm75.218-17.134v-3.984H164.7v-6.335H154.686a0.905,0.905,0,0,1,.479-0.912,0.739,0.739,0,0,0,.431-0.624c0-.432-0.143-0.432-1.58-0.576l-4.552-.384v2.5h-7.617v4.272h7.617v2.063H139.4v3.984h10.06v2.256h-7.9v4.223h7.9v1.968h-7.952V476.4h7.952v2.351h-9.773v4.464h9.773v2.592h5.222v-2.592H166.95v-4.464H154.686V476.4h9.773v-4.128h-9.773v-1.968H164.7v-6.479h3.353Zm-8.671-3.984h-4.695V457.78h4.695v2.063Zm0,6.24h-4.695v-2.256h4.695v2.256Zm9.917,20.158a156.42,156.42,0,0,1-16.432.96c-10.444,0-13.7-2.16-16-4.368a40.046,40.046,0,0,0,3.641-17.326h-5.988c1.868-3.072,2.443-3.984,5.7-9.647l-1.293-1.248H126.373v4.319h6.132a84.5,84.5,0,0,1-6.994,11.231l4.839,1.968c0.239-.336.766-1.152,1.149-1.728h3.881a28.523,28.523,0,0,1-1.725,7.343,56.5,56.5,0,0,1-1.724-5.615l-4.216.624a32.331,32.331,0,0,0,3.641,10.079,23.848,23.848,0,0,1-6.516,7.1l5.126,2.352a23.386,23.386,0,0,0,4.6-5.279,19.031,19.031,0,0,0,7.378,3.839,32.774,32.774,0,0,0,9.007,1.248h15.569Zm46.57-26.974H199.244a44.427,44.427,0,0,0,1.438-4.7,1.4,1.4,0,0,1,.814-1.056,0.948,0.948,0,0,0,.527-0.624,0.463,0.463,0,0,0-.431-0.384l-5.7-.816a40.823,40.823,0,0,1-3.066,9.791v-2.5h-3.976v-5.615a0.731,0.731,0,0,1,.527-0.528,0.66,0.66,0,0,0,.383-0.528,0.449,0.449,0,0,0-.527-0.384l-5.557-.384v7.439h-1.916c0.047-.288.335-2.159,0.335-2.255a1.731,1.731,0,0,1,.766-0.72,0.805,0.805,0,0,0,.288-0.528,0.622,0.622,0,0,0-.575-0.48l-5.174-.72a41.428,41.428,0,0,1-2.539,12.815l4.743,1.487c0.431-1.439.718-2.447,1.245-4.8h2.827v8.831c-3.066.912-4.7,1.344-7.378,1.92l0.91,5.711c0.048,0.432.1,0.72,0.432,0.72a2.894,2.894,0,0,0,1.053-1.1,8.255,8.255,0,0,1,1.246-.48c0.287-.048,2.3-0.816,3.737-1.392v14.3h5.174V476.114c2.06-.768,2.539-0.96,3.784-1.536l0.1-4.9c-1.677.72-2.731,1.1-3.88,1.488v-7.391h2.826a14.371,14.371,0,0,1-2.012,2.88l4.5,2.3a23.546,23.546,0,0,0,3.162-5.183h1.2a22.966,22.966,0,0,1-2.875,7.535,31.692,31.692,0,0,1-6.467,8.3l4.12,2.64c4.359-4.56,7.713-9.743,10.252-18.478h1.82a34.333,34.333,0,0,1-5.413,14.206,39.245,39.245,0,0,1-10.539,11.039l4.5,3.264c13.27-10.079,15.569-23.758,16.384-28.509H210.6c0.1,8.207.144,12.671-.91,17.758-0.766,3.792-1.485,4.608-3.593,4.608-0.383,0-2.108-.048-3.737-0.192l2.444,5.855c6.754-.048,8.479-2.3,9.581-7.055C215.82,478.561,215.868,466.8,215.868,459.267Zm50.4-5.183a20.624,20.624,0,0,0-4.264-4.656l-2.443,1.968a21.36,21.36,0,0,1,4.264,4.656Zm-6.851,0a19.127,19.127,0,0,0-4.12-3.984l-2.491,1.968a19.414,19.414,0,0,1,4.168,3.984Zm2.491,8.159-4.024-4.7a3.869,3.869,0,0,1-2.06.72H245.1c0.527-.768,1.1-2.016,1.629-2.64,0.814-.288,1.1-0.384,1.1-0.672,0-.432-0.863-0.816-1.246-1.008l-4.791-2.16c-2.059,6.1-6.85,13.055-13.653,18.526l4.743,3.408a65.451,65.451,0,0,0,9.2-10.559h12.264A38.884,38.884,0,0,1,248.21,475.2a41.2,41.2,0,0,1-15.378,12.718l5.27,3.744a48.834,48.834,0,0,0,13.126-11.423,49.681,49.681,0,0,0,8.144-15.166A6.9,6.9,0,0,1,261.911,462.243Zm54,9.311-3.258-4.847c-3.066,4.655-8.527,10.031-12.647,12.286V458.02c0-.048.575-0.528,0.575-0.576a1.053,1.053,0,0,0,.527-0.72c0-.48-0.91-0.576-1.341-0.624l-5.558-.672v29.133l4.072,3.167C304.026,484.513,311.212,477.889,315.907,471.554Zm-25.822-14.446c0-.528-0.527-0.672-1.389-0.72L282.9,456a70.43,70.43,0,0,1,.527,9.071c0,11.951-5.653,16.03-10.252,18.718l5.318,3.887c3.5-2.783,9.2-7.487,10.348-17.422,0.239-2.112.239-2.831,0.239-11.807a0.64,0.64,0,0,1,.336-0.623C289.99,457.348,290.085,457.3,290.085,457.108Zm70.428,17.854v-6.1H326.452v6.1h34.061Zm55.05-22.222a4.481,4.481,0,1,0-4.5,4.608A4.512,4.512,0,0,0,415.563,452.74Zm-5.749,7.439-4.743-4.319a2.728,2.728,0,0,1-1.581.768H376.375V462.2h25.534a40.556,40.556,0,0,1-5.988,11.759,38.563,38.563,0,0,1-15.9,12.575l5.222,4.223a42.774,42.774,0,0,0,14.18-11.711c4.551-5.9,6.611-11.374,8.432-16.222A6.368,6.368,0,0,1,409.814,460.179Zm3.88-7.439a2.652,2.652,0,0,1-2.634,2.736,2.713,2.713,0,0,1-2.635-2.736,2.671,2.671,0,0,1,2.635-2.688A2.64,2.64,0,0,1,413.694,452.74Zm47.625,19.1c0-10.7-7.857-17.47-17.822-17.47a20.68,20.68,0,0,0-21.126,20.35c0,8.591,7.856,12.91,9.581,12.91,2.491,0,4.695-4.031,6.132-7.007,1.581-3.215,4.407-9.935,5.94-21.358a12.24,12.24,0,0,1,8.144,3.216,11.326,11.326,0,0,1,3.45,8.4,15.029,15.029,0,0,1-3.45,9.551,16.126,16.126,0,0,1-8.623,5.136l3.545,4.943a23.134,23.134,0,0,0,11.163-8.447A17.96,17.96,0,0,0,461.319,471.842Zm-23-11.711c-0.958,7.488-5.078,20.014-7.569,20.014-0.862,0-3.066-2.016-3.066-5.9a15.734,15.734,0,0,1,4.791-10.655A14.134,14.134,0,0,1,438.323,460.131Zm72.824,12.863v-4.9H490.211c0.432-.719,2.2-4.463,2.348-4.559,0.1-.048.766-0.144,0.862-0.192a0.372,0.372,0,0,0,.288-0.336,1.867,1.867,0,0,0-.959-0.864l-3.832-1.824h16.24v4.848h5.318v-9.6H493.9v-1.536c0-.336.144-0.48,0.767-0.912a0.744,0.744,0,0,0,.335-0.576c0-.288-0.335-0.528-1.341-0.576l-5.749-.288v3.888H471.719v9.407h5.222v-4.656h10.731a48.165,48.165,0,0,1-3.593,7.775H470.666v4.9h10.539a59.8,59.8,0,0,1-5.557,7.535l5.461,2.3c0.479-.624.575-0.72,1.389-1.92a31.91,31.91,0,0,1,6.324,2.16c-3.5,2.4-9.342,4.128-16.959,4.511l2.635,4.848c11.593-1.2,16.192-4.608,19.306-6.911a50.263,50.263,0,0,1,10.779,7.343L508.8,488.4a62.378,62.378,0,0,0-11.066-6.719,45.554,45.554,0,0,0,5.461-8.687h7.953Zm-14.133,0a28.119,28.119,0,0,1-4.072,6.623,48.033,48.033,0,0,0-8.048-2.447c1.581-2.544,1.724-2.784,2.539-4.176h9.581Zm62.763-7.631v-9.6H542.962V453.6a2.845,2.845,0,0,0,1.1-.96,0.7,0.7,0,0,0-.718-0.624l-6.324-.528v4.272H520.3v9.743h4.743v-4.992h30.037v4.848h4.7Zm0.814,21.118c-4.838.432-10.3,0.768-17.582,0.816v-8.592h12.073v-4.8H543.009v-5.04H554.7v-4.607H525.428v4.607H537.5v17.327c-2.347-1.3-5.078-3.168-6.515-8.639,0.335-1.344.671-3.12,0.862-3.792a2.464,2.464,0,0,0,.958-0.912,0.728,0.728,0,0,0-.622-0.48l-5.51-.864a36.69,36.69,0,0,1-2.778,10.559,21.548,21.548,0,0,1-5.126,7.871l4.934,2.352a30.51,30.51,0,0,0,5.03-8.159,14.482,14.482,0,0,0,5.605,5.951,17.653,17.653,0,0,0,8.049,1.968H559.01Zm49.253-13.727-4.216-2.592c-0.1,1.344-.239,3.312-1.389,3.312-0.862,0-2.2-1.152-2.97-1.872a40.3,40.3,0,0,0,4.312-7.2,0.647,0.647,0,0,1,.526-0.288c0.288-.048.623-0.1,0.623-0.384,0-.144-0.048-0.336-0.958-0.768L601.6,460.9a37.978,37.978,0,0,1-3.257,6.576,22.293,22.293,0,0,1-2.252-7.008h13.51v-4.7h-6.228l2.251-1.44a18,18,0,0,0-3.449-3.456l-3.928,2.16c1.245,1.3,1.868,1.92,2.587,2.736h-5.222a27.862,27.862,0,0,1,0-2.832,7.522,7.522,0,0,0,1.1-.96c0-.384-0.527-0.528-1.389-0.576l-4.743-.288a38.45,38.45,0,0,0,.1,4.656H571.471c0.1,2.16.192,4.367,0.192,6.383,0,8.3-1.677,11.615-3.833,15.5l4.647,2.4c3.114-5.039,4.072-9.263,3.976-19.582h14.9c1.2,6.1,2.587,8.927,3.881,11.231a19.758,19.758,0,0,1-5.03,4.176v-8.3H577.459v10.366h4.072v-1.583h8.24l3.833,3.455a22.169,22.169,0,0,0,4.551-4.223c3.785,3.743,6.563,4.175,7.378,4.175C608.694,479.761,609.748,474,609.844,472.754Zm-23.234.384h-5.079v-2.592h5.079v2.592Zm3.784-7.391V462.1H577.747v3.648h12.647Zm19.69,22.461a57.736,57.736,0,0,0-5.557-8.4l-4.6,2.832a34.557,34.557,0,0,1,5.8,8.447Zm-16.049-4.9a39.725,39.725,0,0,0-4.264-5.328l-3.641,2.5a35.828,35.828,0,0,1,3.881,5.28Zm6.8,2.4-4.408-2.736c-0.335,4.224-2.108,4.368-3.4,4.368h-6.036c-0.575,0-2.252-.1-2.252-1.44v-4.08a0.682,0.682,0,0,1,.383-0.432,0.669,0.669,0,0,0,.432-0.576c0-.384-0.288-0.384-1.054-0.432l-4.983-.288v9.311c0,1.68,2.108,2.832,3.929,2.832h11.066c3.785,0,4.743-1.632,5.174-2.352A7.387,7.387,0,0,0,600.838,485.713Zm-22.229-3.024a1.333,1.333,0,0,0-.862-0.816l-4.456-2.112a34.727,34.727,0,0,1-4.934,9.647l4.312,2.88a30.943,30.943,0,0,0,4.79-8.927,1.324,1.324,0,0,1,.863-0.384A0.276,0.276,0,0,0,578.609,482.689Z" transform="translate(-27.875 -376.781)"/>
</svg>
