<svg xmlns="http://www.w3.org/2000/svg" width="599.5" height="155.907" viewBox="0 0 599.5 155.907">
  <metadata><?xpacket begin="﻿" id="W5M0MpCehiHzreSzNTczkc9d"?>
<x:xmpmeta xmlns:x="adobe:ns:meta/" x:xmptk="Adobe XMP Core 5.6-c138 79.159824, 2016/09/14-01:09:01        ">
   <rdf:RDF xmlns:rdf="http://www.w3.org/1999/02/22-rdf-syntax-ns#">
      <rdf:Description rdf:about=""/>
   </rdf:RDF>
</x:xmpmeta>
                                                                                                    
                                                                                                    
                                                                                                    
                                                                                                    
                                                                                                    
                                                                                                    
                                                                                                    
                                                                                                    
                                                                                                    
                                                                                                    
                                                                                                    
                                                                                                    
                                                                                                    
                                                                                                    
                                                                                                    
                                                                                                    
                                                                                                    
                                                                                                    
                                                                                                    
                                                                                                    
                           
<?xpacket end="w"?></metadata>
<defs>
    <style>
      .cls-1 {
        fill: #2f2725;
        fill-rule: evenodd;
      }
    </style>
  </defs>
  <path id="建物を守ることは_人を守ることなんだ_のコピー" data-name="建物を守ることは、 人を守ることなんだ。 のコピー" class="cls-1" d="M104.618,273.767v-5.239h-4.411V260.2H87.038a1.19,1.19,0,0,1,.63-1.2,0.974,0.974,0,0,0,.567-0.821c0-.568-0.189-0.568-2.079-0.757l-5.986-.5V260.2H70.151v5.618H80.17v2.715H66.938v5.239H80.17v2.967h-10.4v5.555h10.4v2.588H69.71v5.429H80.17V293.4H67.316v5.871H80.17v3.409h6.868V299.27h16.13V293.4H87.038v-3.093H99.892v-5.429H87.038v-2.588h13.169v-8.522h4.411Zm-11.405-5.239H87.038v-2.715h6.175v2.715Zm0,8.206H87.038v-2.967h6.175v2.967Zm13.043,26.513a205.61,205.61,0,0,1-21.612,1.263c-13.736,0-18.021-2.841-21.045-5.745,2.773-5.555,4.852-13.951,4.789-22.788H60.511c2.457-4.04,3.213-5.24,7.5-12.689l-1.7-1.641H49.8v5.681h8.065a111.241,111.241,0,0,1-9.2,14.772l6.364,2.588c0.315-.442,1.008-1.515,1.512-2.273h5.1a37.582,37.582,0,0,1-2.268,9.659,74.616,74.616,0,0,1-2.268-7.386l-5.545.821a42.538,42.538,0,0,0,4.789,13.256,31.387,31.387,0,0,1-8.569,9.343l6.742,3.093a30.766,30.766,0,0,0,6.049-6.944,25.009,25.009,0,0,0,9.7,5.05,43.092,43.092,0,0,0,11.846,1.641H102.6ZM167.49,267.77H145.626a58.372,58.372,0,0,0,1.89-6.186,1.842,1.842,0,0,1,1.071-1.389,1.247,1.247,0,0,0,.693-0.821,0.61,0.61,0,0,0-.567-0.5l-7.5-1.073a53.711,53.711,0,0,1-4.032,12.878v-3.283h-5.23v-7.385a0.964,0.964,0,0,1,.693-0.695,0.865,0.865,0,0,0,.5-0.694,0.59,0.59,0,0,0-.693-0.5l-7.309-.5v9.784h-2.521c0.063-.378.441-2.84,0.441-2.966a2.267,2.267,0,0,1,1.009-.947,1.06,1.06,0,0,0,.378-0.695,0.818,0.818,0,0,0-.756-0.631l-6.8-.947a54.533,54.533,0,0,1-3.34,16.855l6.238,1.957c0.567-1.894.945-3.22,1.638-6.313h3.718v11.615c-4.033,1.2-6.175,1.768-9.7,2.525l1.2,7.512c0.063,0.568.126,0.947,0.568,0.947a3.8,3.8,0,0,0,1.386-1.452,10.816,10.816,0,0,1,1.638-.631c0.378-.063,3.024-1.073,4.915-1.831V311.2h6.805V289.927c2.709-1.01,3.339-1.262,4.978-2.02l0.126-6.438c-2.206.946-3.592,1.451-5.1,1.956V273.7h3.717a18.886,18.886,0,0,1-2.646,3.788l5.923,3.03a31.074,31.074,0,0,0,4.159-6.818h1.575a30.222,30.222,0,0,1-3.781,9.911,41.683,41.683,0,0,1-8.506,10.921l5.419,3.472c5.734-6,10.144-12.815,13.484-24.3h2.394a45.167,45.167,0,0,1-7.12,18.685,51.612,51.612,0,0,1-13.862,14.519l5.923,4.293c17.454-13.257,20.478-31.247,21.549-37.5h0.378c0.126,10.8.189,16.665-1.2,23.357-1.008,4.987-1.953,6.06-4.726,6.06-0.5,0-2.772-.063-4.914-0.253l3.213,7.7c8.884-.063,11.153-3.03,12.6-9.28C167.427,293.147,167.49,277.681,167.49,267.77Zm60.794,16.1-2.143-7.2c-2.961,1.326-3.78,1.7-11.152,5.176-1.45-4.166-4.222-6.375-8.57-6.375A12.172,12.172,0,0,0,201,276.8c1.072-1.641,1.576-2.525,3.592-6.249a132.319,132.319,0,0,0,15.059-2.4l0.441-7.07a53.123,53.123,0,0,1-12.349,3.219c0.315-.694,1.89-4.229,1.953-4.292,0.063,0,1.323-.568,1.449-0.632a0.734,0.734,0,0,0,.63-0.694c0-.442-1.071-0.568-1.26-0.631l-7.876-1.389a48.936,48.936,0,0,1-3.151,8.4,88.455,88.455,0,0,1-12.035-.253l0.757,6.565c2.646,0,4.6-.063,8.191-0.252a83.943,83.943,0,0,1-12.413,17.36l6.175,3.85c3.465-5.681,7.246-11.426,13.421-11.426,3.654,0,4.411,2.273,4.789,4.167-9.452,4.86-15.249,7.827-15.249,15.655a8.637,8.637,0,0,0,2.4,6.186c3.969,4.23,11.278,4.23,14.807,4.23a104.077,104.077,0,0,0,15-.947v-7.133a72.744,72.744,0,0,1-16.067,2.02c-4.6,0-9.452-.821-9.452-4.924,0-4.419,6.553-7.7,8.948-8.9-0.063,2.778-.126,5.871-0.315,9.469h7.309c0-2.146-.126-9.974-0.126-12.436C220.281,286.519,223.306,285.446,228.284,283.867Zm68.921-6.944V263.667H274.711V260.2a1.192,1.192,0,0,1,.693-0.947,1.125,1.125,0,0,0,.693-1.01c0-.82-2.646-0.947-3.528-0.947l-5.482-.126v6.5H244.4v13.256h6.931V269.98h38.94v6.943h6.931Zm0.819,10.732v-6.818H283.973V275.03a1.558,1.558,0,0,1,.567-1.137,1.593,1.593,0,0,0,.567-1.01c0-.694-0.819-0.694-3.654-0.883l-5.419-.316v9.153H243.647v6.818h32.387v14.9c0,2.462-.63,2.714-2.2,2.714-0.693,0-4.1-.189-6.175-0.316l2.961,8.081c5.8-.127,13.358-0.442,13.358-6.061V287.655h14.051ZM266.9,299.964a77.407,77.407,0,0,0-9.011-10.731l-6.553,4.545a58.8,58.8,0,0,1,8.57,10.668Zm88.958-8.206a13.9,13.9,0,0,0-13.988-13.951,50.022,50.022,0,0,0-6.112.379c9.137-9.343,10.208-10.353,13.988-13.509l-3.276-5.113c-5.986,2.335-16.7,3.156-19.092,3.156-1.953,0-5.545-.252-7.057-0.379l1.449,7.07a58.7,58.7,0,0,0,14.744-1.578c-10.081,12.247-16.76,17.865-23.313,22.789l5.293,5.555c3.528-3.6,9.073-9.216,12.98-11.3a17.068,17.068,0,0,1,7.183-1.578c4.1,0,10.207,2.02,10.207,8.27a11.124,11.124,0,0,1-4.158,8.395c-1.765-2.209-5.86-7.385-12.413-7.385a8.833,8.833,0,0,0-9.263,8.4c0,4.671,4.033,8.648,11.909,8.648C346.027,309.623,355.856,302.237,355.856,291.758Zm-17.012,11.3a17.909,17.909,0,0,1-4.285.568c-2.268,0-5.167-.631-5.167-2.841,0-.821.567-2.651,3.151-2.651C336.134,298.134,338.025,301.606,338.844,303.058ZM416.9,267.9l-2.962-5.3a110.889,110.889,0,0,1-30.874-.695l1.7,7.26c3.718,0.316,8,.379,18.462.379l-6.427,5.429,4.6,4.987C404.867,277.05,411.357,271.684,416.9,267.9Zm2.52,38.192-0.378-7.828c-4.725.947-8.821,1.7-19.659,1.7-2.772,0-8.947,0-10.711-1.515a2.34,2.34,0,0,1-.883-2.02c0-2.146,2.143-4.1,3.718-5.428l-5.8-4.735c-2.961,2.9-6.3,6.439-6.3,12.057a6.035,6.035,0,0,0,2.079,4.924c3.655,3.472,12.665,3.977,18.273,3.977C407.072,307.224,413.877,306.593,419.422,306.088Zm63.818,2.4v-8.081a81.475,81.475,0,0,1-19.47,2.841c-6.616,0-11.594-2.209-11.594-6.754,0-4.23,4.663-7.449,7.5-9.217a94.727,94.727,0,0,1,23.313-9.974l-2.331-7.7c-7.75,3.661-8.57,4.04-15.816,7.449a7.682,7.682,0,0,1-3.654-4.293c-1.7-4.734-1.765-11.426-1.828-14.961l-8.065,1.2c2.017,12.057,2.332,13.887,3.214,15.971a19.892,19.892,0,0,0,3.717,5.681c-6.931,4.1-13.043,8.143-13.043,16.034a12.031,12.031,0,0,0,6.427,10.794c3.151,1.642,6.427,2.526,13.862,2.526A112.829,112.829,0,0,0,483.24,308.487Zm72.387-9.217a50.4,50.4,0,0,0-10.837-5.934,155.386,155.386,0,0,1-.882-16.918,58.64,58.64,0,0,0,7.876-1.767v-6.818c-2.395,1.452-6.049,2.21-7.813,2.589a72.966,72.966,0,0,1,.882-7.828,2.22,2.22,0,0,0,1.2-1.01c0-.379-0.189-0.695-1.512-0.884l-7.057-1.136c-0.126,6.249-.126,6.944-0.252,11.678a49.667,49.667,0,0,1-5.86.379,32.662,32.662,0,0,1-5.671-.379l0.063,6.5a69.837,69.837,0,0,0,11.405-.505c0.126,4.293.315,6.944,0.819,14.456-1.261-.126-2.584-0.253-3.844-0.253-6.112,0-11.09,2.462-11.09,8.144,0,9.09,10.586,9.09,12.413,9.09,8.57,0,9.83-3.283,9.956-8.143a33.711,33.711,0,0,1,6.616,4.987Zm-35.978-5.555L515.679,291l-2.583,3.787a62.319,62.319,0,0,1-.315-6.628c0-4.861,1.764-16.728,2.331-19.569,0.189-.758.945-3.977,1.386-4.293a9.563,9.563,0,0,0,1.2-.5,0.546,0.546,0,0,0,.252-0.442c0-.631-1.324-1.2-1.513-1.262l-6.112-2.4a119.893,119.893,0,0,0-3.843,29.543,68.035,68.035,0,0,0,2.394,19.569l5.8-.947C515.364,302.805,518.263,296.682,519.649,293.715Zm18.714,3.977c0.126,3.283.252,4.734-3.907,4.734-3.717,0-5.545-1.325-5.545-2.777s2.017-2.525,4.978-2.525A21.669,21.669,0,0,1,538.363,297.692Zm27.776,0.379A51.878,51.878,0,0,1,578.3,312.085l6.553-5.24a37.094,37.094,0,0,0-13.988-13.7ZM72.2,404.1c-10.9-5.808-23.124-12.815-23.124-38.255,0-.82,0-5.05.126-5.3s1.134-1.073,1.26-1.263a1.51,1.51,0,0,0,.5-1.01c0-.947-2.142-0.947-2.835-0.947l-7.057-.252c0.063,2.651.252,10.794,0.252,12.5,0,6.754-.756,16.855-9.452,25.945-3.97,4.1-7.309,6.123-13.484,9.09l6.112,6.123c12.287-8.017,16.32-12.373,20.919-23.23,5.167,11.236,9.388,15.718,21.171,22.914ZM131.422,383.4l-2.142-7.2c-2.961,1.326-3.781,1.7-11.153,5.176-1.449-4.166-4.221-6.375-8.569-6.375a12.182,12.182,0,0,0-5.419,1.325c1.071-1.641,1.575-2.525,3.592-6.249a132.354,132.354,0,0,0,15.059-2.4l0.441-7.07a53.069,53.069,0,0,1-12.35,3.219c0.315-.694,1.891-4.229,1.954-4.292,0.063,0,1.323-.568,1.449-0.631a0.736,0.736,0,0,0,.63-0.695c0-.442-1.071-0.568-1.26-0.631l-7.877-1.389a49.007,49.007,0,0,1-3.15,8.4,88.452,88.452,0,0,1-12.035-.253l0.756,6.566c2.646,0,4.6-.064,8.191-0.253A83.935,83.935,0,0,1,87.127,388l6.175,3.85c3.466-5.681,7.246-11.425,13.421-11.425,3.654,0,4.41,2.272,4.788,4.166-9.451,4.861-15.248,7.827-15.248,15.655a8.639,8.639,0,0,0,2.394,6.186c3.97,4.23,11.279,4.23,14.808,4.23a104.077,104.077,0,0,0,15-.947v-7.133a72.753,72.753,0,0,1-16.068,2.02c-4.6,0-9.451-.821-9.451-4.924,0-4.419,6.553-7.7,8.947-8.9-0.063,2.778-.126,5.871-0.315,9.469h7.309c0-2.146-.126-9.974-0.126-12.436C123.42,386.047,126.445,384.974,131.422,383.4Zm68.922-6.943V363.2H177.85v-3.472a1.192,1.192,0,0,1,.693-0.947,1.125,1.125,0,0,0,.693-1.01c0-.82-2.647-0.947-3.529-0.947l-5.482-.126v6.5H147.542v13.257h6.931v-6.944h38.94v6.944h6.931Zm0.819,10.731v-6.818H187.112v-5.807a1.555,1.555,0,0,1,.567-1.136,1.6,1.6,0,0,0,.567-1.01c0-.695-0.819-0.695-3.654-0.884l-5.419-.316v9.153H146.786v6.818h32.387v14.9c0,2.462-.63,2.714-2.206,2.714-0.693,0-4.095-.189-6.174-0.315l2.961,8.08c5.8-.127,13.358-0.442,13.358-6.06V387.183h14.051Zm-31.127,12.31a77.29,77.29,0,0,0-9.01-10.732l-6.553,4.545a58.726,58.726,0,0,1,8.569,10.669ZM259,391.286a13.9,13.9,0,0,0-13.988-13.951,50.215,50.215,0,0,0-6.112.379c9.136-9.343,10.208-10.353,13.988-13.509l-3.276-5.113c-5.986,2.336-16.7,3.156-19.092,3.156-1.954,0-5.545-.252-7.057-0.378l1.449,7.07a58.736,58.736,0,0,0,14.744-1.579c-10.081,12.247-16.76,17.865-23.313,22.789l5.292,5.555c3.529-3.6,9.074-9.216,12.98-11.3a17.076,17.076,0,0,1,7.183-1.578c4.1,0,10.208,2.02,10.208,8.27a11.125,11.125,0,0,1-4.159,8.4c-1.764-2.21-5.859-7.386-12.412-7.386a8.833,8.833,0,0,0-9.263,8.4c0,4.671,4.033,8.648,11.909,8.648C249.166,409.151,259,401.765,259,391.286Zm-17.012,11.3a17.917,17.917,0,0,1-4.285.568c-2.268,0-5.167-.631-5.167-2.841,0-.82.567-2.651,3.151-2.651C239.273,397.662,241.163,401.134,241.983,402.586Zm78.058-35.161-2.962-5.3a110.84,110.84,0,0,1-30.875-.694l1.7,7.259c3.717,0.316,8,.379,18.462.379l-6.427,5.429,4.6,4.987C308.006,376.578,314.5,371.212,320.041,367.425Zm2.52,38.191-0.378-7.828c-4.726.947-8.821,1.7-19.659,1.7-2.773,0-8.947,0-10.712-1.515a2.343,2.343,0,0,1-.882-2.02c0-2.147,2.142-4.1,3.718-5.429l-5.8-4.735c-2.962,2.9-6.3,6.439-6.3,12.057a6.035,6.035,0,0,0,2.079,4.924c3.655,3.472,12.665,3.977,18.273,3.977C310.211,406.752,317.016,406.121,322.561,405.616Zm63.818,2.4v-8.081a81.475,81.475,0,0,1-19.47,2.841c-6.616,0-11.594-2.209-11.594-6.754,0-4.23,4.663-7.449,7.5-9.217a94.737,94.737,0,0,1,23.314-9.974l-2.332-7.7c-7.75,3.661-8.569,4.04-15.815,7.449a7.687,7.687,0,0,1-3.655-4.293c-1.7-4.734-1.764-11.426-1.827-14.961l-8.065,1.2c2.016,12.057,2.331,13.888,3.213,15.971a19.919,19.919,0,0,0,3.718,5.681c-6.931,4.1-13.043,8.143-13.043,16.034a12.031,12.031,0,0,0,6.427,10.8c3.151,1.641,6.427,2.525,13.862,2.525A112.853,112.853,0,0,0,386.379,408.015Zm67.535-7.512a57.821,57.821,0,0,0-10.837-5.745,62.672,62.672,0,0,1-.819-8.774,5.786,5.786,0,0,1,2.394-5.05L438.1,377.4a9.544,9.544,0,0,0-2.71,6.438c0,1.326.757,7.765,0.883,9.217a31.674,31.674,0,0,0-4.915-.379c-8.7,0-11.153,5.555-11.153,8.964a7.155,7.155,0,0,0,2.331,5.366c2.647,2.335,6.238,2.967,10.271,2.967,8.254,0,10.145-2.652,10.712-7.7a34.763,34.763,0,0,1,6.238,4.166Zm-17.327-1.137c0,2.273.063,4.924-5.041,4.924-3.466,0-5.23-1.452-5.23-2.84,0-1.263,1.512-3.031,4.789-3.031A21.162,21.162,0,0,1,436.587,399.366Zm19.092-25.25a31.117,31.117,0,0,0-14.052-5.808l-2.835,5.429a44.552,44.552,0,0,1,13.8,5.745ZM436.9,370.833v-7.07c-1.639.568-3.529,1.2-7.246,2.147,0.252-.821,1.449-4.861,1.512-4.924,0.378-.379,1.449-0.758,1.449-1.389,0-.694-1.2-1.01-1.512-1.073l-6.868-1.515a60.269,60.269,0,0,1-2.269,10.416,83.7,83.7,0,0,1-10.711.82l0.945,6.565c2.961-.189,4.726-0.378,7.624-0.757-2.583,7.133-5.734,15.276-10.775,22.978l6.742,2.9c3.277-6,6.553-12.309,11.657-27.081A96.476,96.476,0,0,0,436.9,370.833Zm85.934,26.45-4.1-6.06c-2.331,3.409-6.805,9.595-11.152,9.595-1.576,0-2.584-.757-2.584-2.967,0-1.578,1.449-8.522,1.449-9.974,0-3.913-2.331-7.638-7.876-7.638a18.451,18.451,0,0,0-6.3,1.326c3.907-9.027,8.318-16.6,9.263-16.918a11.336,11.336,0,0,1,1.386-.379,0.67,0.67,0,0,0,.5-0.568c0-.631-1.134-1.2-1.512-1.389l-7.12-3.787c-0.819,2.02-1.7,4.04-3.844,8.648-2.835,6.06-4.411,9.153-19.6,38.57l7.75,2.209c3.655-10.163,6.994-14.771,7.939-15.781,1.765-2.02,4.915-4.734,8.381-4.734a3.033,3.033,0,0,1,3.276,3.345c0,1.01-1.26,8.333-1.26,9.911,0,0.379,0,7.765,8.632,7.765C515.527,408.457,520.505,400.881,522.836,397.283Zm58.588-12.309v-6a47.616,47.616,0,0,0-5.86-.253,84.657,84.657,0,0,0-10.459.631v6.061A73.057,73.057,0,0,1,581.424,384.974Zm-13.106-11.552v-6.881a32.417,32.417,0,0,1-9.325,3.724c0.441-1.83,1.071-4.86,1.134-5.176,0.189-1.326.189-1.515,0.63-1.768,1.008-.757,1.134-0.82,1.134-1.073,0-.442-0.378-0.694-1.386-0.947l-7.12-1.767a62.184,62.184,0,0,1-1.7,12.436,52.465,52.465,0,0,1-10.523.757l0.441,5.934a25.508,25.508,0,0,0,3.781-.379c0.5-.063,4.851-0.694,4.851-0.694a100.846,100.846,0,0,1-11.53,28.785l6.994,2.02a178.212,178.212,0,0,0,11.845-31.941A58.986,58.986,0,0,0,568.318,373.422Zm16.257-9.091a37.225,37.225,0,0,0-4.789-4.923l-2.71,2.714a36.439,36.439,0,0,1,4.726,4.861Zm-6.616,3.283a45.853,45.853,0,0,0-4.978-5.113l-2.647,2.525a40.676,40.676,0,0,1,4.978,5.113Zm4.662,39.769-0.756-6.691a37.1,37.1,0,0,1-10.207,1.263c-1.135,0-5.608,0-7.184-1.389a2.1,2.1,0,0,1-.819-1.7,14.533,14.533,0,0,1,.252-2.4l-5.86-.884a17.256,17.256,0,0,0-.378,3.724c0,8.585,8,8.964,14.115,8.964A55.042,55.042,0,0,0,582.621,407.383Zm25.571-15.276a9.753,9.753,0,1,0,9.7,9.721A9.729,9.729,0,0,0,608.192,392.107Zm0,3.03a6.692,6.692,0,1,1-6.742,6.691A6.688,6.688,0,0,1,608.192,395.137Z" transform="translate(-18.406 -256.656)"/>
</svg>
