<svg id="グループ_10" data-name="グループ 10" xmlns="http://www.w3.org/2000/svg" width="600" height="123.94" viewBox="0 0 600 123.94">
  <metadata><?xpacket begin="﻿" id="W5M0MpCehiHzreSzNTczkc9d"?>
<x:xmpmeta xmlns:x="adobe:ns:meta/" x:xmptk="Adobe XMP Core 5.6-c138 79.159824, 2016/09/14-01:09:01        ">
   <rdf:RDF xmlns:rdf="http://www.w3.org/1999/02/22-rdf-syntax-ns#">
      <rdf:Description rdf:about=""/>
   </rdf:RDF>
</x:xmpmeta>
                                                                                                    
                                                                                                    
                                                                                                    
                                                                                                    
                                                                                                    
                                                                                                    
                                                                                                    
                                                                                                    
                                                                                                    
                                                                                                    
                                                                                                    
                                                                                                    
                                                                                                    
                                                                                                    
                                                                                                    
                                                                                                    
                                                                                                    
                                                                                                    
                                                                                                    
                                                                                                    
                           
<?xpacket end="w"?></metadata>
<defs>
    <style>
      .cls-1, .cls-2 {
        fill: #2f2725;
      }

      .cls-1 {
        fill-opacity: 0;
      }

      .cls-2 {
        fill-rule: evenodd;
      }
    </style>
  </defs>
  <rect id="長方形_54" data-name="長方形 54" class="cls-1" y="55.28" width="600" height="28"/>
  <path id="ビル管理は裏方_そう思わないほうがいい" data-name="ビル管理は裏方 そう思わないほうがいい" class="cls-2" d="M191.625,1722.82a28.845,28.845,0,0,0-4.74-4.1l-2.545,2.25a25.022,25.022,0,0,1,4.74,4.15Zm-4.74,4a30.186,30.186,0,0,0-4.79-4.15l-2.5,2.25a29.122,29.122,0,0,1,4.74,4.15Zm-1.447,33.89v-6.49a105.213,105.213,0,0,1-16.466,1.39c-8.333,0-8.632-1.54-8.632-4.44v-7.9a108.836,108.836,0,0,0,15.817-4.35c1.2-.4,7.135-2.9,7.385-2.9s1.2,0.2,1.347.2a0.388,0.388,0,0,0,.449-0.4,2.684,2.684,0,0,0-.749-1.15l-4.141-4.15a41.806,41.806,0,0,1-8.333,4.05,52.109,52.109,0,0,1-11.775,3.2v-12.05a1.029,1.029,0,0,1,.6-0.65,1.315,1.315,0,0,0,.5-0.7c0-.3-0.5-0.65-1.5-0.8l-5.488-.8v30.7c0,5.34,1.846,7.84,16.516,7.84C177.654,1761.31,183.043,1760.86,185.438,1760.71Zm56.045-18.59-3.393-5.05c-3.194,4.85-8.882,10.45-13.173,12.8v-21.85c0-.05.6-0.55,0.6-0.6a1.1,1.1,0,0,0,.549-0.75c0-.5-0.948-0.6-1.4-0.65l-5.788-.7v30.34l4.241,3.3C229.108,1755.61,236.593,1748.72,241.483,1742.12Zm-26.9-15.05c0-.55-0.548-0.7-1.447-0.75l-6.037-.4a73.383,73.383,0,0,1,.549,9.45c0,12.45-5.888,16.7-10.678,19.5l5.538,4.04c3.643-2.9,9.581-7.79,10.778-18.14,0.25-2.2.25-2.95,0.25-12.3a0.668,0.668,0,0,1,.349-0.65C214.489,1727.32,214.588,1727.27,214.588,1727.07Zm71.464,36.34v-11.89h-24.4v-1.75h20.707v-10H255.615v24.49h6.037v-2.05h18.661v1.2h5.739Zm4.241-34.89v-4.55H276.92a8.861,8.861,0,0,1,.549-0.9c0.9-.55,1.1-0.65,1.1-0.85a1.232,1.232,0,0,0-.948-0.6l-5.588-1.3a19.337,19.337,0,0,1-3.094,5.9v-2.4H257.91a1.722,1.722,0,0,1,.948-0.7,0.508,0.508,0,0,0,.349-0.5,1.146,1.146,0,0,0-.9-0.6l-5.139-1.2a31.076,31.076,0,0,1-6.637,9.35l4.691,2.8a39.776,39.776,0,0,0,3.842-4.65h1.946a13.573,13.573,0,0,1,1.048,4.6l5.788-.6a20.64,20.64,0,0,0-1.1-4h4.341a13.227,13.227,0,0,1-1.4,1.3l2.944,1.65-2.944-.1v2.55H247.931v9.9h5.788v-5.6h30.586v5.6h5.888v-9.9H272.629a1.026,1.026,0,0,1,.449-1.15,0.726,0.726,0,0,0,.4-0.6c0-.5-0.749-0.55-1.248-0.6,0.749-.95,1.148-1.5,2.046-2.85h1.846a12.241,12.241,0,0,1,.948,4.2l5.688-.4a14.124,14.124,0,0,0-.848-3.8h8.383Zm-13.472,17.5H261.652v-2.4h15.169v2.4Zm3.492,12.04H261.652v-2.55h18.661v2.55Zm60.137,4.45v-4.65H330.022v-4.79h8.831v-4.5h-8.831v-4.65h9.33v-21.4h-23.8v21.4h9.28v4.65H316.4v4.5h8.432v4.79h-14.02v4.65H340.45Zm-6.137-31.49h-4.291v-4h4.291v4Zm0,8.65h-4.291v-4.45h4.291v4.45Zm-9.481-8.65h-4.241v-4h4.241v4Zm0,8.65h-4.241v-4.45h4.241v4.45Zm-11.526,12.25v-4.35a53.557,53.557,0,0,1-5.339,1.6v-8.25h4.242v-4.9h-4.242v-8.05h5.04v-4.55H297.589v4.55h4.99v8.05h-4.242v4.9h4.242v9.85c-1.7.55-3.743,1.15-6.038,1.65l0.948,4.79c0.15,0.7.3,0.95,0.5,0.95a3.614,3.614,0,0,0,.848-0.9c0.4-.3,4.94-1.75,5.888-2.1C307.618,1754.12,310.462,1753.07,313.306,1751.92Zm76.553,2.35a39.916,39.916,0,0,0-8.582-4.7,123.08,123.08,0,0,1-.7-13.4,46.53,46.53,0,0,0,6.237-1.4v-5.4a21.753,21.753,0,0,1-6.187,2.05,57.741,57.741,0,0,1,.7-6.2,1.755,1.755,0,0,0,.948-0.8c0-.3-0.15-0.55-1.2-0.7l-5.588-.9c-0.1,4.95-.1,5.5-0.2,9.25a39.411,39.411,0,0,1-4.64.3,25.924,25.924,0,0,1-4.491-.3l0.05,5.15a55.343,55.343,0,0,0,9.031-.4c0.1,3.4.25,5.5,0.649,11.45-1-.1-2.046-0.2-3.044-0.2-4.84,0-8.782,1.95-8.782,6.45,0,7.19,8.383,7.19,9.83,7.19,6.786,0,7.784-2.6,7.884-6.45a26.708,26.708,0,0,1,5.239,3.95Zm-28.491-4.4-3.144-2.15-2.045,3a49.264,49.264,0,0,1-.25-5.25,127.315,127.315,0,0,1,1.846-15.5c0.15-.6.749-3.15,1.1-3.4a7.668,7.668,0,0,0,.948-0.4,0.433,0.433,0,0,0,.2-0.35c0-.5-1.048-0.95-1.2-1l-4.84-1.9a94.969,94.969,0,0,0-3.043,23.4,53.821,53.821,0,0,0,1.9,15.49l4.59-.75C357.975,1757.06,360.27,1752.22,361.368,1749.87Zm14.819,3.15c0.1,2.59.2,3.74-3.093,3.74-2.944,0-4.391-1.05-4.391-2.19s1.6-2,3.942-2A17.116,17.116,0,0,1,376.187,1753.02Zm64.079-1.05v-4H421.455v-1.8h15.168v-3.65H421.455v-1.5h14.021v-11.7H402.145v11.7h13.621v1.5h-14.42v3.65h14.42v1.8H397.205v4h12.574a29.648,29.648,0,0,1-12.824,3.54l2.545,4.1a38.642,38.642,0,0,0,7.285-1.7v2.15c-0.748.1-3.044,0.45-5.189,0.65l1,4.9a0.871,0.871,0,0,0,.6.85,0.99,0.99,0,0,0,.648-0.7c0.349-.6.549-0.6,2.146-0.95,1.5-.35,3.942-0.8,5.438-1.15,3.543-.85,7.086-1.7,10.628-2.65l0.749-3.9a30.666,30.666,0,0,0,14.27,7.3l3.144-4.75a25.636,25.636,0,0,1-8.632-1.95c0.9-.55,2.045-1.35,2.3-1.5,1.3-.85,1.4-1.05,1.8-1.05a10.418,10.418,0,0,0,1.248.05,0.436,0.436,0,0,0,.249-0.39,1.284,1.284,0,0,0-.549-0.85l-2.195-2h5.838Zm-10.179-18.1h-8.632v-1.75h8.632v1.75Zm0,4.3h-8.632v-1.9h8.632v1.9Zm-14.321-4.3h-8.282v-1.75h8.282v1.75Zm0,4.3h-8.282v-1.9h8.282v1.9Zm15.918,13.8a19.98,19.98,0,0,1-4.192,3.44,14.418,14.418,0,0,1-3.692-3.44h7.884Zm-9.331,4.69a91.931,91.931,0,0,1-10.079,2.5v-3.5a48.017,48.017,0,0,0,6.187-3.69A27.681,27.681,0,0,0,422.353,1756.66Zm18.013-29.09v-4.25H422.3a1.029,1.029,0,0,1,.549-1.25,0.524,0.524,0,0,0,.249-0.45c0-.55-0.748-0.65-1.247-0.65l-5.988-.2v2.55H397.355v4.25h43.011Zm49.508,5.95v-5.3H471.712v-4.85a3.178,3.178,0,0,0,1.1-1.15,0.891,0.891,0,0,0-.9-0.6l-6.386-.5v7.1H447.412v5.3H462.83c-0.05,4.6-.1,9.95-3.942,16-3.592,5.69-8.033,7.89-11.725,9.69l4.44,4.25a30.872,30.872,0,0,0,9.73-7.85,32.014,32.014,0,0,0,5.988-11.84H478c0.249,5.75-.5,10.3-1.447,12.34s-2.1,2.45-4.042,2.45a37.391,37.391,0,0,1-3.842-.15l2.595,5.55c6.885-.2,9.53-2.05,11.326-8.6,1.447-5.29,1.347-10.49,1.2-16.64H468.369a39.766,39.766,0,0,0,.5-5.2h21.006Zm-403.3,83.1v-5.4c-1.6.35-9.231,2.1-10.977,2.45-2.794.6-4.89,0.9-5.888,1.1a133.309,133.309,0,0,1,12.175-11.85l-2.545-4.2a46.512,46.512,0,0,1-14.769,2.3c-2.3,0-3.942-.15-5.538-0.25l2.146,5a53.128,53.128,0,0,0,11.376-1.25c-3.593,4.7-10.029,11.05-11.576,11.85-1.2.6-8.083,1.15-9.83,1.3l1.048,5.45c0.848-.25,1.347-0.35,2-0.5,5.139-1.2,11.726-2.45,17.614-3.6-7.534,5.6-7.684,12.2-7.684,12.95a8.9,8.9,0,0,0,4.042,7.34c3.792,2.7,8.133,3.1,10.828,3.35l1-5.45c-3.044-.05-10.029-0.2-10.029-6.29,0-3.05,1.6-5.6,3.992-8C78.786,1817.97,82.778,1817.27,86.57,1816.62Zm40.028-16.5a59.136,59.136,0,0,1-14.969-1.75l0.449,6.15a135.72,135.72,0,0,0,13.822,1.25Zm6.437,19.9c0-2.1-.349-5.1-2.146-7.1a8.9,8.9,0,0,0-6.636-2.75c-6.387,0-15.917,3.8-19.609,5.25l2.295,5.8c3.642-1.8,11.676-5.8,15.817-5.8,1.547,0,4.491.9,4.491,5.3a15.363,15.363,0,0,1-3.643,9.55c-4.141,5.04-9.53,6.64-12.474,7.49l3.842,4.8c3.393-1.25,8.732-3.15,12.973-8.3A22.381,22.381,0,0,0,133.035,1820.02Zm52.951,3.25v-23.35h-33.48v23.35H157.9v-1.55h22.8v1.55h5.289Zm-5.289-14.85h-8.532v-3.85H180.7v3.85Zm0,8.9h-8.532v-4.45H180.7v4.45Zm-14.27-8.9H157.9v-3.85h8.532v3.85Zm0,8.9H157.9v-4.45h8.532v4.45Zm25.148,17.49a39.656,39.656,0,0,0-7.086-7.84l-3.692,3.75a34.833,34.833,0,0,1,6.586,7.84Zm-14.321-6.04a24.178,24.178,0,0,0-5.987-5.25l-3.992,3.35a17,17,0,0,1,6.088,5.45Zm3.942,6.14-4.341-2.29c-0.948,3.49-1.8,4.14-2.694,4.14h-7.235c-1.148,0-1.547-.4-1.547-1.45v-6.54a0.968,0.968,0,0,1,.5-0.75,0.685,0.685,0,0,0,.4-0.55,0.588,0.588,0,0,0-.549-0.5l-5.738-1v12.04c0,2.2,2.146,3.65,4.84,3.65h10.778C179.749,1841.66,180.847,1836.61,181.2,1834.91Zm-23.3-4.49a0.637,0.637,0,0,0-.449-0.55l-5.639-2.55a26.727,26.727,0,0,1-5.488,9.84l4.54,3.3a26.249,26.249,0,0,0,5.189-8.59,2.18,2.18,0,0,1,1.348-.9A0.588,0.588,0,0,0,157.9,1830.42Zm80.893-7.35a12.751,12.751,0,0,0-12.873-12.95,18.041,18.041,0,0,0-9.53,3.15,42.861,42.861,0,0,1,2.445-3.8l-3.094-2.7-1.547.55c-0.1-2.15.05-4.8,0.349-5.1a5.314,5.314,0,0,0,1-1.15c0-.45-0.9-0.55-1.347-0.6l-5.339-.5c0.2,2.6.15,5.25,0.1,8.85-3.842.95-5.838,1.35-7.734,1.7l0.9,6.5c1.6-.75,2.794-1.2,6.736-2.65l-0.1,3.4c-5.987,8.5-6.686,9.45-9.081,12.25l4.89,3.64c1.547-2.49,2.445-3.84,4.042-6.09-0.15,5.79-.25,7.74-0.549,13.24l5.938-.5c-0.1-3.55-.35-7.79-0.3-14.54l0.05-4.55c3.842-3.95,7.984-5.85,11.377-5.85a7.722,7.722,0,0,1,7.883,7.8c0,3.4-2.4,6.35-3.992,7.8a14.8,14.8,0,0,1-8.033,3.94l3.942,5.05C228.559,1838.71,238.788,1835.11,238.788,1823.07Zm47.413,10.54a46.321,46.321,0,0,0-8.582-4.54,49.644,49.644,0,0,1-.649-6.95,4.585,4.585,0,0,1,1.9-4l-5.189-2.8a7.561,7.561,0,0,0-2.145,5.1c0,1.05.6,6.15,0.7,7.3a25.127,25.127,0,0,0-3.892-.3c-6.886,0-8.831,4.4-8.831,7.09a5.663,5.663,0,0,0,1.846,4.25c2.095,1.85,4.939,2.35,8.133,2.35,6.536,0,8.033-2.1,8.482-6.1a27.446,27.446,0,0,1,4.94,3.3Zm-13.721-.89c0,1.79.05,3.89-3.992,3.89-2.744,0-4.142-1.15-4.142-2.25,0-1,1.2-2.39,3.793-2.39A16.728,16.728,0,0,1,272.48,1832.72Zm15.118-20a24.627,24.627,0,0,0-11.127-4.6l-2.245,4.3a35.27,35.27,0,0,1,10.927,4.55Zm-14.869-2.6v-5.6c-1.3.45-2.794,0.95-5.738,1.7,0.2-.65,1.148-3.85,1.2-3.9,0.3-.3,1.147-0.6,1.147-1.1,0-.55-0.948-0.8-1.2-0.85l-5.439-1.2a47.788,47.788,0,0,1-1.8,8.25,66.306,66.306,0,0,1-8.483.65l0.749,5.2c2.345-.15,3.742-0.3,6.037-0.6a85.843,85.843,0,0,1-8.532,18.2l5.339,2.29c2.594-4.74,5.189-9.74,9.231-21.44C269.486,1810.97,271.033,1810.57,272.729,1810.12Zm67.122,16.65a42.552,42.552,0,0,0-8.183-21.25l-5.139,2.5c2.6,4,5.888,9.9,7.335,20.3Zm-22-.75-4.142-3.7c-0.948,2.4-2.993,7.7-4.79,7.7-1,0-3.393-1.8-3.393-11.55a51.991,51.991,0,0,1,.948-11.15c0.849-.3,1.447-0.5,1.447-1.05a1.33,1.33,0,0,0-1.147-.95l-5.489-1.5a48.805,48.805,0,0,0-1.5,13c0,9.5,1.6,15.35,5.09,18.74a5.435,5.435,0,0,0,3.692,1.65C312.608,1837.21,315.1,1831.92,317.847,1826.02Zm38.282,13.69a36.748,36.748,0,0,1,4.64-11.84l-3.093-1.95c-0.8,1.15-1.6,2.4-2.046,3.15a58.528,58.528,0,0,1-.3-5.95c0-8.45,2.445-18.05,3.194-18.45,0.3-.1.8-0.25,0.948-0.3a0.638,0.638,0,0,0,.4-0.55c0-.45-0.6-0.65-1.2-0.9l-5.389-2.1c-1.8,8.2-3.094,14.45-3.094,22.9,0,5.2.5,11.59,2.046,16.49Zm31.235-29.74a29.64,29.64,0,0,1-6.985,2.45,41.544,41.544,0,0,1,.449-5.55c0.848-.2,1.8-0.4,4.141-1v-5.25a45.785,45.785,0,0,1-17.963,2.95l0.1,4.8a52.44,52.44,0,0,0,8.333-.6c-0.2,2.05-.25,3.6-0.3,5.55a49.118,49.118,0,0,1-9.58.5l0.1,5.05a52.034,52.034,0,0,0,9.48-.45c0.05,1.35.05,2.25,0.4,7.95a22.713,22.713,0,0,0-3.094-.2c-6.836,0-8.932,3.7-8.932,6.6,0,3.84,3.942,7.29,10.229,7.29,7.934,0,7.634-4.4,7.485-6.45a23.635,23.635,0,0,1,5.089,4.25l3.343-4.65a31.924,31.924,0,0,0-8.831-5.59c-0.3-4.8-.4-7.1-0.5-10.05a33.1,33.1,0,0,0,7.035-2.2v-5.4Zm-11.576,20.95c0.1,2.99,0,4.44-3.094,4.44-3.143,0-4.141-1.7-4.141-2.69,0-1.25,1.946-2.3,3.992-2.3A10.324,10.324,0,0,1,375.788,1830.92Zm50.257-30.8a59.136,59.136,0,0,1-14.969-1.75l0.449,6.15a135.72,135.72,0,0,0,13.822,1.25Zm6.437,19.9c0-2.1-.349-5.1-2.146-7.1a8.9,8.9,0,0,0-6.636-2.75c-6.387,0-15.917,3.8-19.609,5.25l2.3,5.8c3.642-1.8,11.676-5.8,15.817-5.8,1.547,0,4.491.9,4.491,5.3a15.363,15.363,0,0,1-3.643,9.55c-4.141,5.04-9.53,6.64-12.474,7.49l3.842,4.8c3.393-1.25,8.732-3.15,12.973-8.3A22.381,22.381,0,0,0,432.482,1820.02Zm61.084-15.1a22.747,22.747,0,0,0-3.891-4.2l-2.6,1.9a19.854,19.854,0,0,1,3.543,4.3Zm-5.438,2.8a30.805,30.805,0,0,0-3.842-4.25l-2.695,2a22.3,22.3,0,0,1,3.942,4.4Zm-0.8,13.5c0-5.3-6.786-13.35-9.081-16.1l-4.041,2.8c5.289,6.15,7.185,10.25,7.185,11.5,0,1.2-1.048,1.45-2.844,1.7l2.644,4.75C483.038,1825.62,487.329,1825.02,487.329,1821.22Zm-11.326.05c0-4.45-.6-10.4-7.335-10.4a20.8,20.8,0,0,0-3.642.35c0.4-2.25.5-3.15,0.748-5.15a1.06,1.06,0,0,1,.7-1.05c0.5-.3.548-0.35,0.548-0.55a1.184,1.184,0,0,0-1.2-.75l-5.988-.85a59.852,59.852,0,0,1-.5,9.5c-4.091.9-5.788,1.25-9.58,1.85l1.846,6a44.66,44.66,0,0,1,6.786-2.7,53.007,53.007,0,0,1-9.031,19.49l5.189,2.35c4.541-6.89,6.936-12.89,9.481-23.14a16.46,16.46,0,0,1,2.694-.25c3.094,0,4.042,1.2,4.042,5.05,0,2.4-.4,8.7-2.645,11.5a3.9,3.9,0,0,1-3.443,1.39,14.656,14.656,0,0,1-3.393-.4l1.2,5.4a35.033,35.033,0,0,0,3.742.2c2.994,0,4.641-.9,5.688-1.95C474.256,1834.91,476,1828.47,476,1821.27Zm63.48,5.5a42.562,42.562,0,0,0-8.183-21.25l-5.14,2.5c2.6,4,5.888,9.9,7.335,20.3Zm-22-.75-4.141-3.7c-0.948,2.4-2.994,7.7-4.79,7.7-1,0-3.393-1.8-3.393-11.55a51.925,51.925,0,0,1,.948-11.15c0.848-.3,1.447-0.5,1.447-1.05a1.331,1.331,0,0,0-1.148-.95l-5.489-1.5a48.814,48.814,0,0,0-1.5,13c0,9.5,1.6,15.35,5.089,18.74a5.437,5.437,0,0,0,3.692,1.65C512.239,1837.21,514.734,1831.92,517.478,1826.02Zm71.912,0.75a42.552,42.552,0,0,0-8.183-21.25l-5.139,2.5c2.6,4,5.888,9.9,7.335,20.3Zm-22-.75-4.141-3.7c-0.948,2.4-2.994,7.7-4.791,7.7-1,0-3.392-1.8-3.392-11.55a51.925,51.925,0,0,1,.948-11.15c0.848-.3,1.447-0.5,1.447-1.05a1.331,1.331,0,0,0-1.148-.95l-5.489-1.5a48.805,48.805,0,0,0-1.5,13c0,9.5,1.6,15.35,5.09,18.74a5.437,5.437,0,0,0,3.692,1.65C562.147,1837.21,564.642,1831.92,567.386,1826.02Z" transform="translate(-20 -1718.72)"/>
</svg>
