<svg id="グループ_4" data-name="グループ 4" xmlns="http://www.w3.org/2000/svg" width="700" height="131.37" viewBox="0 0 700 131.37">
  <metadata><?xpacket begin="﻿" id="W5M0MpCehiHzreSzNTczkc9d"?>
<x:xmpmeta xmlns:x="adobe:ns:meta/" x:xmptk="Adobe XMP Core 5.6-c138 79.159824, 2016/09/14-01:09:01        ">
   <rdf:RDF xmlns:rdf="http://www.w3.org/1999/02/22-rdf-syntax-ns#">
      <rdf:Description rdf:about=""/>
   </rdf:RDF>
</x:xmpmeta>
                                                                                                    
                                                                                                    
                                                                                                    
                                                                                                    
                                                                                                    
                                                                                                    
                                                                                                    
                                                                                                    
                                                                                                    
                                                                                                    
                                                                                                    
                                                                                                    
                                                                                                    
                                                                                                    
                                                                                                    
                                                                                                    
                                                                                                    
                                                                                                    
                                                                                                    
                                                                                                    
                           
<?xpacket end="w"?></metadata>
<defs>
    <style>
      .cls-1 {
        fill: #fff100;
        opacity: 0;
      }

      .cls-2 {
        fill: #2f2725;
        fill-rule: evenodd;
      }
    </style>
  </defs>
  <rect id="長方形_53" data-name="長方形 53" class="cls-1" y="25.84" width="700" height="42"/>
  <path id="ひとつのビルを守る_ひとつの仲間_" data-name="ひとつのビルを守る、 ひとつの仲間 " class="cls-2" d="M767.2,1445.66c-5.19,4.06-8.252,5.46-14.013,6.66l2.751,5.51a47.146,47.146,0,0,0,6.851-2.76c-1.869,4.47-3.945,9.83-3.945,15.97,0,10.19,7.733,14.4,13.909,14.4,6.436,0,15.155-3.64,15.155-19.34a40.319,40.319,0,0,0-.831-8.06,38.892,38.892,0,0,0,7.526,9.98l3.581-4.84c-5.138-4.31-9.186-8.73-14.272-18.87l-5.606,2.65c0.987,2.34,4.308,10.04,4.308,18.67,0,5.09-1.661,13.67-9.964,13.67-8.1,0-8.1-7.95-8.1-9.62,0-7.69,3.893-14.66,7.422-20.12Zm76.868,39.05v-6.66a67.136,67.136,0,0,1-16.037,2.34c-5.449,0-9.549-1.82-9.549-5.56,0-3.48,3.84-6.13,6.176-7.59a78.2,78.2,0,0,1,19.2-8.22l-1.92-6.34c-6.384,3.02-7.058,3.33-13.027,6.14a6.334,6.334,0,0,1-3.01-3.54c-1.4-3.9-1.453-9.41-1.5-12.32l-6.643.99c1.661,9.93,1.92,11.44,2.647,13.15a16.332,16.332,0,0,0,3.062,4.68c-5.709,3.38-10.743,6.71-10.743,13.21a9.918,9.918,0,0,0,5.294,8.89c2.594,1.35,5.293,2.08,11.417,2.08A92.625,92.625,0,0,0,844.065,1484.71Zm58.236-20.9c0-11.18-8.979-14.72-15.933-14.72-3.529,0-6.747.78-12.975,2.34a103.2,103.2,0,0,1-13.338,2.5l2.8,6.55c1.764-.47,10.276-2.96,12.2-3.48,3.633-1.04,8.563-2.34,11.521-2.34,3.945,0,9.55,1.97,9.55,8.52,0,8.27-9.6,11.91-18.476,11.91a40.743,40.743,0,0,1-5.086-.26l2.646,6.81c6.073-.21,12.2-1.19,17.646-3.95C897.422,1475.35,902.3,1471.4,902.3,1463.81Zm53.928,0.99c0-11.6-8.511-18.93-19.306-18.93-13.39,0-22.888,10.5-22.888,22.05,0,9.3,8.512,13.98,10.38,13.98,2.7,0,5.086-4.37,6.643-7.59,1.713-3.48,4.775-10.76,6.436-23.14a13.294,13.294,0,0,1,8.822,3.49,12.261,12.261,0,0,1,3.737,9.1,16.277,16.277,0,0,1-3.737,10.34,17.487,17.487,0,0,1-9.341,5.57l3.84,5.35a25.038,25.038,0,0,0,12.093-9.15A19.452,19.452,0,0,0,956.229,1464.8Zm-24.911-12.69c-1.038,8.11-5.5,21.68-8.2,21.68-0.935,0-3.322-2.18-3.322-6.39a17.05,17.05,0,0,1,5.19-11.55A15.335,15.335,0,0,1,931.318,1452.11Zm80.242-7.7a30.2,30.2,0,0,0-4.93-4.26l-2.65,2.34a25.693,25.693,0,0,1,4.93,4.32Zm-4.93,4.16a31.072,31.072,0,0,0-4.98-4.31l-2.6,2.34a30.092,30.092,0,0,1,4.929,4.31Zm-1.51,35.26v-6.76A109.24,109.24,0,0,1,988,1478.52c-8.668,0-8.979-1.61-8.979-4.62v-8.22a113.567,113.567,0,0,0,16.452-4.52c1.246-.42,7.42-3.02,7.68-3.02s1.25,0.21,1.4.21a0.408,0.408,0,0,0,.47-0.42,2.81,2.81,0,0,0-.78-1.19l-4.307-4.32a42.952,42.952,0,0,1-8.667,4.21,54.231,54.231,0,0,1-12.248,3.33v-12.53a1.094,1.094,0,0,1,.623-0.68,1.327,1.327,0,0,0,.519-0.72c0-.32-0.519-0.68-1.557-0.84l-5.709-.83v31.93c0,5.56,1.92,8.16,17.178,8.16C997.027,1484.45,1002.63,1483.98,1005.12,1483.83Zm59.59-19.35-3.53-5.25c-3.32,5.05-9.24,10.87-13.7,13.31v-22.72c0-.05.62-0.57,0.62-0.62a1.131,1.131,0,0,0,.57-0.78c0-.52-0.98-0.63-1.45-0.68l-6.02-.73v31.56l4.41,3.44C1051.84,1478.52,1059.62,1471.35,1064.71,1464.48Zm-27.98-15.65c0-.57-0.57-0.72-1.5-0.78l-6.28-.41a75.921,75.921,0,0,1,.57,9.82c0,12.95-6.12,17.37-11.11,20.28l5.77,4.21c3.78-3.01,9.96-8.11,11.21-18.87,0.26-2.29.26-3.07,0.26-12.79a0.708,0.708,0,0,1,.36-0.68C1036.63,1449.09,1036.73,1449.04,1036.73,1448.83Zm76.09,15.6-1.76-5.93c-2.44,1.1-3.11,1.41-9.19,4.27-1.19-3.43-3.47-5.25-7.05-5.25a10.079,10.079,0,0,0-4.47,1.09c0.88-1.35,1.3-2.08,2.96-5.15a107.831,107.831,0,0,0,12.4-1.97l0.37-5.83a43.579,43.579,0,0,1-10.17,2.65c0.25-.57,1.55-3.48,1.6-3.53,0.06,0,1.09-.47,1.2-0.52a0.612,0.612,0,0,0,.52-0.57c0-.37-0.89-0.47-1.04-0.52l-6.49-1.15a40.74,40.74,0,0,1-2.59,6.92,73.921,73.921,0,0,1-9.92-.21l0.63,5.41c2.18,0,3.79-.05,6.74-0.21a69.106,69.106,0,0,1-10.22,14.3l5.09,3.17c2.85-4.68,5.96-9.41,11.05-9.41,3.01,0,3.63,1.87,3.94,3.43-7.78,4-12.56,6.45-12.56,12.89a7.105,7.105,0,0,0,1.98,5.1c3.27,3.48,9.29,3.48,12.19,3.48a85.706,85.706,0,0,0,12.35-.78v-5.87a59.688,59.688,0,0,1-13.23,1.66c-3.79,0-7.78-.67-7.78-4.05,0-3.64,5.39-6.35,7.37-7.33-0.06,2.28-.11,4.83-0.26,7.79h6.02c0-1.76-.11-8.21-0.11-10.24C1106.23,1466.62,1108.72,1465.73,1112.82,1464.43Zm56.79-5.72v-10.92h-18.53v-2.86a0.992,0.992,0,0,1,.57-0.78,0.917,0.917,0,0,0,.57-0.83c0-.67-2.18-0.78-2.91-0.78l-4.51-.1v5.35h-18.68v10.92h5.7v-5.72h32.08v5.72h5.71Zm0.67,8.84v-5.61h-11.57v-4.79a1.278,1.278,0,0,1,.47-0.93,1.35,1.35,0,0,0,.46-0.83c0-.58-0.67-0.58-3.01-0.73l-4.46-.26v7.54h-26.68v5.61h26.68v12.27c0,2.03-.52,2.24-1.82,2.24-0.57,0-3.37-.16-5.08-0.26l2.44,6.65c4.77-.1,11-0.36,11-4.99v-15.91h11.57Zm-25.64,10.14a63.831,63.831,0,0,0-7.42-8.84l-5.4,3.75a47.935,47.935,0,0,1,7.06,8.78Zm73.29-6.76a11.447,11.447,0,0,0-11.52-11.49,41.31,41.31,0,0,0-5.04.31c7.53-7.69,8.41-8.52,11.53-11.12l-2.7-4.22c-4.93,1.93-13.76,2.6-15.73,2.6-1.61,0-4.57-.2-5.81-0.31l1.19,5.83a49.2,49.2,0,0,0,12.15-1.3c-8.31,10.08-13.81,14.71-19.21,18.77l4.36,4.57c2.91-2.96,7.48-7.59,10.7-9.31a14.1,14.1,0,0,1,5.91-1.3c3.38,0,8.41,1.67,8.41,6.82a9.129,9.129,0,0,1-3.43,6.91c-1.45-1.82-4.82-6.08-10.22-6.08a7.272,7.272,0,0,0-7.63,6.91c0,3.85,3.32,7.13,9.81,7.13C1209.83,1485.65,1217.93,1479.56,1217.93,1470.93Zm-14.01,9.31a15.067,15.067,0,0,1-3.53.47c-1.87,0-4.26-.52-4.26-2.34a2.294,2.294,0,0,1,2.6-2.19C1201.69,1476.18,1203.24,1479.04,1203.92,1480.24Zm27.66-4.11a42.834,42.834,0,0,1,10.02,11.54l5.4-4.31a30.492,30.492,0,0,0-11.52-11.28Zm-373.55,53.53c-5.19,4.06-8.252,5.46-14.013,6.66l2.751,5.51a47.182,47.182,0,0,0,6.85-2.76c-1.868,4.47-3.944,9.83-3.944,15.97,0,10.19,7.733,14.4,13.909,14.4,6.435,0,15.154-3.64,15.154-19.34a40.4,40.4,0,0,0-.83-8.06,38.863,38.863,0,0,0,7.525,9.98l3.581-4.84c-5.138-4.31-9.186-8.73-14.272-18.87l-5.605,2.65c0.986,2.34,4.308,10.04,4.308,18.67,0,5.09-1.661,13.67-9.965,13.67-8.1,0-8.1-7.95-8.1-9.62,0-7.69,3.892-14.66,7.421-20.12Zm76.867,39.05v-6.66a67.128,67.128,0,0,1-16.036,2.34c-5.45,0-9.55-1.82-9.55-5.56,0-3.48,3.841-6.13,6.176-7.59a78.226,78.226,0,0,1,19.2-8.22l-1.92-6.34c-6.384,3.02-7.059,3.33-13.027,6.14a6.327,6.327,0,0,1-3.01-3.54c-1.4-3.9-1.453-9.41-1.5-12.32l-6.643.99c1.66,9.93,1.92,11.44,2.646,13.15a16.332,16.332,0,0,0,3.062,4.68c-5.708,3.38-10.743,6.71-10.743,13.21a9.918,9.918,0,0,0,5.294,8.89c2.595,1.35,5.294,2.08,11.418,2.08A92.621,92.621,0,0,0,934.9,1568.71Zm58.236-20.9c0-11.18-8.978-14.72-15.933-14.72-3.529,0-6.747.78-12.974,2.34a103.233,103.233,0,0,1-13.338,2.5l2.8,6.55c1.765-.47,10.276-2.96,12.2-3.48,3.633-1.04,8.564-2.34,11.522-2.34,3.944,0,9.549,1.97,9.549,8.52,0,8.27-9.6,11.91-18.476,11.91a40.743,40.743,0,0,1-5.086-.26l2.647,6.81c6.072-.21,12.2-1.19,17.646-3.95C988.255,1559.35,993.133,1555.4,993.133,1547.81Zm53.927,0.99c0-11.6-8.51-18.93-19.3-18.93-13.39,0-22.89,10.5-22.89,22.05,0,9.3,8.51,13.98,10.38,13.98,2.7,0,5.08-4.37,6.64-7.59,1.71-3.48,4.78-10.76,6.44-23.14a13.291,13.291,0,0,1,8.82,3.49,12.254,12.254,0,0,1,3.74,9.1,16.319,16.319,0,0,1-3.74,10.34,17.519,17.519,0,0,1-9.34,5.57l3.84,5.35a25.034,25.034,0,0,0,12.09-9.15A19.452,19.452,0,0,0,1047.06,1548.8Zm-24.91-12.69c-1.04,8.11-5.5,21.68-8.2,21.68-0.93,0-3.32-2.18-3.32-6.39a17.027,17.027,0,0,1,5.19-11.55A15.361,15.361,0,0,1,1022.15,1536.11Zm79.46,22.83v-23.66h-12.45v-6.4a1.205,1.205,0,0,1,.67-0.93,0.972,0.972,0,0,0,.52-0.68c0-.47-0.52-0.52-1.24-0.57l-5.97-.31v8.89h-12.15v23.86h5.61v-1.82h6.54v14.2h6.02v-14.2h6.59v1.62h5.86Zm-5.86-7.02h-6.59v-11.34h6.59v11.34Zm-12.61,0h-6.54v-11.34h6.54v11.34Zm-10.9-23.61a1.054,1.054,0,0,0-.83-0.78l-6.33-2.34a63.3,63.3,0,0,1-10.85,21.73l5.24,3.7c0.78-1.04,1.45-2.03,2.13-3.07v23.86h6.12V1539.8a1.044,1.044,0,0,1,.57-0.78,0.882,0.882,0,0,0,.52-0.67c0-.63-1.04-1.04-1.45-1.2a61.9,61.9,0,0,0,3.32-7.7,1,1,0,0,1,.78-0.46A0.9,0.9,0,0,0,1072.24,1528.31Zm81.17,36.92v-37.65h-19.72v16.59h14.12v19.65c0,1.82-.94,2.03-1.87,2.03a25.1,25.1,0,0,1-3.01-.21l2.8,5.72h2.49C1152.01,1571.36,1153.41,1569.8,1153.41,1565.23Zm-5.6-31.2h-8.46v-2.34h8.46v2.34Zm0,6.08h-8.46v-2.54h8.46v2.54Zm-4.93,24.96v-17.94h-20.87v19.76h5.35v-1.82h15.52Zm-5.35-11.07h-10.17v-2.81h10.17V1554Zm0,7.01h-10.17v-2.96h10.17v2.96Zm-7-16.84v-16.59h-19.47v43.68h5.61v-27.09h13.86Zm-5.61-10.14h-8.25v-2.34h8.25v2.34Zm0,6.08h-8.25v-2.54h8.25v2.54Z" transform="translate(-650 -1440.16)"/>
</svg>
