<svg xmlns="http://www.w3.org/2000/svg" width="617.559" height="160.594" viewBox="0 0 617.559 160.594">
  <metadata><?xpacket begin="﻿" id="W5M0MpCehiHzreSzNTczkc9d"?>
<x:xmpmeta xmlns:x="adobe:ns:meta/" x:xmptk="Adobe XMP Core 5.6-c138 79.159824, 2016/09/14-01:09:01        ">
   <rdf:RDF xmlns:rdf="http://www.w3.org/1999/02/22-rdf-syntax-ns#">
      <rdf:Description rdf:about=""/>
   </rdf:RDF>
</x:xmpmeta>
                                                                                                    
                                                                                                    
                                                                                                    
                                                                                                    
                                                                                                    
                                                                                                    
                                                                                                    
                                                                                                    
                                                                                                    
                                                                                                    
                                                                                                    
                                                                                                    
                                                                                                    
                                                                                                    
                                                                                                    
                                                                                                    
                                                                                                    
                                                                                                    
                                                                                                    
                                                                                                    
                           
<?xpacket end="w"?></metadata>
<defs>
    <style>
      .cls-1 {
        fill: #2f2725;
        fill-rule: evenodd;
      }
    </style>
  </defs>
  <path id="建物を守ることは_人を守ることなんだ_のコピー" data-name="建物を守ることは、 人を守ることなんだ。 のコピー" class="cls-1" d="M776.363,324.379v-5.4H771.82V310.4H758.254a1.225,1.225,0,0,1,.649-1.235,1,1,0,0,0,.585-0.846c0-.585-0.2-0.585-2.142-0.78l-6.166-.52V310.4H740.86v5.787h10.32v2.8H737.55v5.4h13.63v3.057H740.47v5.722h10.71v2.666H740.405v5.592H751.18V344.6H737.939v6.048H751.18v3.511h7.074V350.65H774.87V344.6H758.254v-3.186H771.5v-5.592H758.254v-2.666H771.82v-8.779h4.543Zm-11.748-5.4h-6.361v-2.8h6.361v2.8Zm0,8.454h-6.361v-3.057h6.361v3.057Zm13.435,27.31a211.994,211.994,0,0,1-22.262,1.3c-14.149,0-18.563-2.927-21.678-5.918,2.856-5.722,5-14.37,4.932-23.474h-8.113c2.532-4.161,3.311-5.4,7.724-13.07L736.9,311.9H719.9v5.852H728.2a114.588,114.588,0,0,1-9.476,15.216l6.556,2.666c0.324-.455,1.038-1.561,1.557-2.341H732.1a38.756,38.756,0,0,1-2.337,9.949,77.033,77.033,0,0,1-2.337-7.608l-5.711.845a43.8,43.8,0,0,0,4.933,13.655,32.321,32.321,0,0,1-8.827,9.624l6.944,3.186a31.677,31.677,0,0,0,6.231-7.152,25.77,25.77,0,0,0,10,5.2,44.423,44.423,0,0,0,12.2,1.69h21.094ZM841.127,318.2H818.605a60.2,60.2,0,0,0,1.947-6.372,1.9,1.9,0,0,1,1.1-1.431,1.284,1.284,0,0,0,.714-0.845,0.626,0.626,0,0,0-.584-0.52l-7.723-1.106a55.349,55.349,0,0,1-4.154,13.265v-3.381H804.52V310.2a0.992,0.992,0,0,1,.714-0.715,0.892,0.892,0,0,0,.52-0.716,0.609,0.609,0,0,0-.714-0.52l-7.529-.52v10.079h-2.6c0.064-.39.454-2.926,0.454-3.056a2.348,2.348,0,0,1,1.038-.976,1.091,1.091,0,0,0,.39-0.715,0.843,0.843,0,0,0-.779-0.65l-7.01-.976a56.115,56.115,0,0,1-3.44,17.362l6.426,2.016c0.584-1.951.973-3.316,1.687-6.5h3.83v11.965c-4.154,1.236-6.361,1.821-10,2.6l1.234,7.738c0.064,0.585.129,0.975,0.584,0.975a3.928,3.928,0,0,0,1.428-1.5,11.121,11.121,0,0,1,1.687-.65c0.39-.065,3.116-1.106,5.063-1.886v19.377h7.009V341.026c2.791-1.041,3.44-1.3,5.128-2.081l0.13-6.632c-2.272.975-3.7,1.5-5.258,2.015V324.314h3.83a19.467,19.467,0,0,1-2.726,3.9l6.1,3.121a31.909,31.909,0,0,0,4.284-7.023h1.622a31.133,31.133,0,0,1-3.894,10.209,42.939,42.939,0,0,1-8.762,11.25l5.582,3.576c5.906-6.177,10.449-13.2,13.889-25.035h2.467a46.531,46.531,0,0,1-7.335,19.248A53.17,53.17,0,0,1,805.3,358.518l6.1,4.421c17.979-13.655,21.1-32.187,22.2-38.625h0.389c0.13,11.12.2,17.167-1.233,24.06-1.038,5.137-2.012,6.242-4.868,6.242-0.519,0-2.855-.065-5.062-0.26l3.31,7.933c9.152-.065,11.488-3.121,12.981-9.559C841.062,344.342,841.127,328.411,841.127,318.2Zm62.622,16.581-2.207-7.412c-3.05,1.365-3.894,1.755-11.488,5.332-1.493-4.292-4.348-6.568-8.827-6.568a12.535,12.535,0,0,0-5.582,1.366c1.1-1.691,1.623-2.6,3.7-6.438a136.242,136.242,0,0,0,15.512-2.471l0.454-7.283a54.724,54.724,0,0,1-12.721,3.317c0.325-.716,1.947-4.357,2.012-4.422,0.065,0,1.363-.585,1.493-0.65a0.757,0.757,0,0,0,.649-0.716c0-.455-1.1-0.585-1.3-0.65l-8.113-1.43a50.535,50.535,0,0,1-3.245,8.648,91.157,91.157,0,0,1-12.4-.26l0.779,6.763c2.726,0,4.738-.066,8.437-0.261-4.413,7.738-7.659,12.355-12.786,17.882l6.361,3.967c3.569-5.852,7.464-11.77,13.824-11.77,3.765,0,4.544,2.341,4.933,4.292-9.736,5.007-15.707,8.063-15.707,16.126A8.9,8.9,0,0,0,870,358.518c4.089,4.356,11.618,4.356,15.252,4.356A107.269,107.269,0,0,0,900.7,361.9v-7.348a74.881,74.881,0,0,1-16.551,2.081c-4.738,0-9.736-.845-9.736-5.072,0-4.552,6.75-7.933,9.217-9.169-0.065,2.861-.13,6.048-0.325,9.754h7.529c0-2.211-.13-10.274-0.13-12.81C895.506,337.515,898.622,336.409,903.749,334.783Zm71-7.152V313.975H951.573V310.4a1.227,1.227,0,0,1,.714-0.975,1.159,1.159,0,0,0,.714-1.041c0-.845-2.726-0.975-3.635-0.975l-5.647-.13v6.7H920.354v13.656h7.139v-7.153h40.112v7.153h7.139Zm0.844,11.054v-7.023H961.114V325.68a1.6,1.6,0,0,1,.584-1.17,1.646,1.646,0,0,0,.584-1.041c0-.715-0.843-0.715-3.764-0.91l-5.582-.325v9.428H919.575v7.023h33.361v15.346c0,2.536-.649,2.8-2.272,2.8-0.714,0-4.219-.195-6.36-0.325l3.05,8.323c5.971-.13,13.76-0.455,13.76-6.242v-19.9h14.474Zm-32.063,12.68a79.672,79.672,0,0,0-9.282-11.054l-6.75,4.681a60.554,60.554,0,0,1,8.827,10.99Zm91.635-8.453a14.319,14.319,0,0,0-14.41-14.371,51.791,51.791,0,0,0-6.3.39c9.42-9.623,10.52-10.664,14.41-13.915l-3.37-5.267c-6.17,2.406-17.2,3.251-19.67,3.251-2.01,0-5.71-.26-7.267-0.39l1.5,7.283a60.421,60.421,0,0,0,15.18-1.626c-10.38,12.615-17.261,18.4-24.011,23.474l5.452,5.722c3.639-3.706,9.349-9.493,13.369-11.639a17.6,17.6,0,0,1,7.4-1.626c4.22,0,10.52,2.081,10.52,8.519a11.458,11.458,0,0,1-4.29,8.648c-1.82-2.276-6.03-7.608-12.78-7.608-6.37,0-9.55,4.942-9.55,8.648,0,4.812,4.16,8.909,12.27,8.909C1025.03,361.314,1035.16,353.706,1035.16,342.912Zm-17.52,11.639a18.48,18.48,0,0,1-4.42.585c-2.33,0-5.32-.65-5.32-2.926,0-.845.58-2.731,3.24-2.731C1014.84,349.479,1016.79,353.055,1017.64,354.551Zm80.4-36.219-3.05-5.462a114.221,114.221,0,0,1-31.8-.715l1.75,7.478c3.83,0.325,8.24.39,19.02,0.39l-6.62,5.592,4.73,5.137C1085.64,327.761,1092.33,322.234,1098.04,318.332Zm2.6,39.34-0.39-8.063c-4.87.976-9.09,1.756-20.25,1.756-2.86,0-9.22,0-11.04-1.561a2.409,2.409,0,0,1-.9-2.081c0-2.21,2.2-4.226,3.82-5.592l-5.97-4.877c-3.05,2.992-6.49,6.633-6.49,12.42a6.241,6.241,0,0,0,2.14,5.072c3.77,3.576,13.05,4.1,18.83,4.1C1087.92,358.843,1094.93,358.192,1100.64,357.672Zm65.74,2.471V351.82a84.02,84.02,0,0,1-20.06,2.926c-6.82,0-11.94-2.276-11.94-6.958,0-4.356,4.8-7.672,7.72-9.493a97.451,97.451,0,0,1,24.02-10.274l-2.41-7.933c-7.98,3.771-8.82,4.161-16.29,7.673a7.925,7.925,0,0,1-3.76-4.422c-1.75-4.877-1.82-11.769-1.88-15.411l-8.31,1.236c2.08,12.419,2.4,14.305,3.31,16.451a20.45,20.45,0,0,0,3.83,5.852c-7.14,4.227-13.44,8.388-13.44,16.517a12.4,12.4,0,0,0,6.62,11.119c3.25,1.69,6.62,2.6,14.28,2.6A116.325,116.325,0,0,0,1166.38,360.143Zm74.56-9.493a51.936,51.936,0,0,0-11.16-6.113,157.337,157.337,0,0,1-.91-17.426,60.9,60.9,0,0,0,8.11-1.821v-7.023c-2.47,1.5-6.23,2.276-8.05,2.666a76.4,76.4,0,0,1,.91-8.063,2.269,2.269,0,0,0,1.23-1.04c0-.391-0.19-0.716-1.55-0.911l-7.27-1.17c-0.13,6.437-.13,7.153-0.26,12.029a51.125,51.125,0,0,1-6.04.391,33.6,33.6,0,0,1-5.84-.391l0.06,6.7a72.046,72.046,0,0,0,11.75-.52c0.13,4.422.33,7.153,0.85,14.891-1.3-.13-2.66-0.261-3.96-0.261-6.3,0-11.43,2.536-11.43,8.389,0,9.363,10.91,9.363,12.79,9.363,8.83,0,10.13-3.381,10.26-8.388a34.986,34.986,0,0,1,6.81,5.137Zm-37.06-5.723-4.09-2.8-2.66,3.9a63.137,63.137,0,0,1-.33-6.828c0-5.007,1.82-17.231,2.41-20.158,0.19-.78.97-4.1,1.42-4.421a10.063,10.063,0,0,0,1.24-.52,0.58,0.58,0,0,0,.26-0.456c0-.65-1.37-1.235-1.56-1.3l-6.3-2.471a123.55,123.55,0,0,0-3.96,30.432,69.972,69.972,0,0,0,2.47,20.157l5.97-.975C1199.47,354.291,1202.45,347.984,1203.88,344.927Zm19.28,4.1c0.13,3.381.26,4.877-4.03,4.877-3.83,0-5.71-1.366-5.71-2.861s2.08-2.6,5.13-2.6A22.45,22.45,0,0,1,1223.16,349.024Zm28.61,0.39a53.363,53.363,0,0,1,12.52,14.436l6.75-5.4a38.173,38.173,0,0,0-14.4-14.111ZM742.975,458.634c-11.229-5.983-23.821-13.2-23.821-39.405,0-.846,0-5.2.13-5.462s1.168-1.106,1.3-1.3a1.554,1.554,0,0,0,.52-1.04c0-.976-2.207-0.976-2.921-0.976l-7.27-.26c0.065,2.731.26,11.119,0.26,12.875,0,6.958-.779,17.362-9.736,26.725-4.089,4.227-7.529,6.308-13.889,9.364l6.295,6.307c12.657-8.258,16.811-12.745,21.549-23.929,5.322,11.575,9.671,16.191,21.808,23.6Zm61-21.328-2.207-7.413c-3.05,1.365-3.894,1.755-11.488,5.332-1.493-4.292-4.349-6.568-8.827-6.568a12.535,12.535,0,0,0-5.582,1.366c1.1-1.691,1.623-2.6,3.7-6.438a136.242,136.242,0,0,0,15.512-2.471l0.454-7.282a54.779,54.779,0,0,1-12.721,3.316c0.325-.715,1.947-4.357,2.012-4.422,0.065,0,1.363-.585,1.493-0.65a0.757,0.757,0,0,0,.649-0.715c0-.456-1.1-0.586-1.3-0.651l-8.113-1.43a50.463,50.463,0,0,1-3.246,8.648,91.146,91.146,0,0,1-12.4-.26l0.778,6.763c2.726,0,4.739-.065,8.438-0.26-4.413,7.737-7.659,12.354-12.786,17.881l6.361,3.967c3.569-5.852,7.464-11.77,13.824-11.77,3.765,0,4.544,2.341,4.933,4.292-9.736,5.007-15.707,8.063-15.707,16.126a8.9,8.9,0,0,0,2.466,6.373c4.089,4.356,11.618,4.356,15.253,4.356a107.269,107.269,0,0,0,15.448-.975v-7.348a74.881,74.881,0,0,1-16.551,2.081c-4.738,0-9.736-.845-9.736-5.072,0-4.552,6.75-7.933,9.217-9.169-0.065,2.862-.13,6.048-0.325,9.754h7.529c0-2.211-.13-10.274-0.13-12.81C795.731,440.037,798.847,438.931,803.974,437.306Zm71-7.153V416.5H851.8v-3.577a1.227,1.227,0,0,1,.714-0.975,1.159,1.159,0,0,0,.714-1.041c0-.845-2.726-0.975-3.635-0.975l-5.647-.13v6.7H820.579v13.655h7.139V423h40.111v7.153h7.14Zm0.844,11.054v-7.023H861.339V428.2a1.6,1.6,0,0,1,.584-1.17,1.643,1.643,0,0,0,.584-1.041c0-.715-0.843-0.715-3.764-0.91l-5.582-.325v9.428H819.8v7.023h33.361v15.346c0,2.536-.649,2.8-2.272,2.8-0.714,0-4.219-.195-6.36-0.325l3.05,8.323c5.971-.13,13.76-0.455,13.76-6.242v-19.9h14.474Zm-32.063,12.68a79.672,79.672,0,0,0-9.282-11.054l-6.75,4.681a60.554,60.554,0,0,1,8.827,10.99Zm91.634-8.453a14.32,14.32,0,0,0-14.408-14.371,51.6,51.6,0,0,0-6.3.39c9.411-9.623,10.514-10.664,14.409-13.915l-3.375-5.267c-6.166,2.406-17.2,3.251-19.667,3.251-2.012,0-5.711-.26-7.269-0.39l1.493,7.283a60.454,60.454,0,0,0,15.188-1.626c-10.385,12.615-17.265,18.4-24.015,23.474l5.452,5.722c3.634-3.706,9.346-9.493,13.37-11.639a17.579,17.579,0,0,1,7.4-1.626c4.219,0,10.515,2.081,10.515,8.519a11.462,11.462,0,0,1-4.284,8.648c-1.817-2.276-6.036-7.608-12.786-7.608-6.361,0-9.541,4.942-9.541,8.648,0,4.812,4.154,8.909,12.267,8.909C925.259,463.836,935.384,456.228,935.384,445.434ZM917.86,457.073a18.432,18.432,0,0,1-4.413.585c-2.337,0-5.323-.65-5.323-2.926,0-.845.584-2.731,3.246-2.731C915.069,452,917.016,455.578,917.86,457.073Zm80.406-36.219-3.05-5.462a114.252,114.252,0,0,1-31.8-.715l1.753,7.478c3.829,0.325,8.243.39,19.017,0.39l-6.62,5.592,4.738,5.137C985.869,430.283,992.555,424.756,998.266,420.854Zm2.594,39.34-0.39-8.063c-4.865.976-9.084,1.756-20.247,1.756-2.856,0-9.217,0-11.034-1.561a2.409,2.409,0,0,1-.909-2.08c0-2.211,2.207-4.227,3.83-5.593l-5.972-4.877c-3.05,2.992-6.49,6.633-6.49,12.42a6.215,6.215,0,0,0,2.142,5.072c3.764,3.577,13.046,4.1,18.822,4.1C988.141,461.365,995.151,460.715,1000.86,460.194Zm65.74,2.471v-8.323a84.02,84.02,0,0,1-20.06,2.926c-6.81,0-11.94-2.276-11.94-6.957,0-4.357,4.8-7.673,7.73-9.494a97.52,97.52,0,0,1,24.01-10.274l-2.4-7.933c-7.98,3.771-8.83,4.162-16.29,7.673a7.934,7.934,0,0,1-3.77-4.422c-1.75-4.877-1.81-11.769-1.88-15.411l-8.31,1.236c2.08,12.419,2.4,14.305,3.31,16.451a20.651,20.651,0,0,0,3.83,5.852c-7.14,4.227-13.43,8.388-13.43,16.517a12.38,12.38,0,0,0,6.62,11.119c3.24,1.691,6.62,2.6,14.28,2.6A116.049,116.049,0,0,0,1066.6,462.665Zm69.57-7.738A59.481,59.481,0,0,0,1125,449.01a64.963,64.963,0,0,1-.84-9.038,5.956,5.956,0,0,1,2.47-5.2l-6.75-3.642a9.826,9.826,0,0,0-2.79,6.633c0,1.365.77,8,.9,9.493a32.6,32.6,0,0,0-5.06-.39c-8.96,0-11.49,5.722-11.49,9.234a7.4,7.4,0,0,0,2.4,5.527c2.73,2.406,6.43,3.056,10.58,3.056,8.51,0,10.45-2.731,11.04-7.933a35.5,35.5,0,0,1,6.42,4.292Zm-17.85-1.17c0,2.341.06,5.072-5.19,5.072-3.57,0-5.39-1.5-5.39-2.926,0-1.3,1.56-3.122,4.93-3.122A21.778,21.778,0,0,1,1118.32,453.757Zm19.66-26.01a32.02,32.02,0,0,0-14.47-5.982l-2.92,5.592a45.766,45.766,0,0,1,14.21,5.917Zm-19.34-3.381v-7.283c-1.68.585-3.63,1.235-7.46,2.211,0.26-.846,1.49-5.007,1.56-5.072,0.39-.39,1.49-0.781,1.49-1.431,0-.715-1.23-1.04-1.56-1.105l-7.07-1.561a62.987,62.987,0,0,1-2.34,10.729,86.21,86.21,0,0,1-11.03.846l0.97,6.762c3.05-.195,4.87-0.39,7.85-0.78-2.66,7.348-5.9,15.736-11.1,23.669l6.95,2.991c3.37-6.177,6.75-12.68,12.01-27.9C1114.42,425.471,1116.44,424.951,1118.64,424.366Zm88.52,27.245-4.22-6.242c-2.4,3.511-7.01,9.883-11.48,9.883-1.63,0-2.67-.78-2.67-3.056,0-1.625,1.5-8.778,1.5-10.274,0-4.031-2.4-7.868-8.12-7.868a19.02,19.02,0,0,0-6.49,1.366c4.03-9.3,8.57-17.1,9.54-17.427a12.2,12.2,0,0,1,1.43-.39,0.691,0.691,0,0,0,.52-0.585c0-.65-1.17-1.236-1.56-1.431l-7.33-3.9c-0.84,2.081-1.75,4.161-3.96,8.908-2.92,6.243-4.54,9.429-20.19,39.73l7.99,2.276c3.76-10.469,7.2-15.216,8.18-16.256,1.81-2.081,5.06-4.877,8.63-4.877a3.12,3.12,0,0,1,3.37,3.446c0,1.041-1.29,8.584-1.29,10.209,0,0.391,0,8,8.89,8C1199.63,463.12,1204.76,455.317,1207.16,451.611Zm60.35-12.68v-6.177a49.171,49.171,0,0,0-6.03-.26,87.3,87.3,0,0,0-10.78.65v6.242A75.311,75.311,0,0,1,1267.51,438.931Zm-13.5-11.9v-7.088a33.393,33.393,0,0,1-9.6,3.836c0.45-1.885,1.1-5.007,1.16-5.332,0.2-1.365.2-1.56,0.65-1.82,1.04-.781,1.17-0.846,1.17-1.106,0-.455-0.39-0.715-1.43-0.975l-7.33-1.821a64.371,64.371,0,0,1-1.75,12.81,54.065,54.065,0,0,1-10.84.78l0.45,6.113a26.427,26.427,0,0,0,3.9-.39c0.52-.065,4.99-0.716,4.99-0.716a103.855,103.855,0,0,1-11.87,29.652l7.2,2.08c5.26-10.469,9.02-21.588,12.2-32.9A60.638,60.638,0,0,0,1254.01,427.032Zm16.75-9.364a38.8,38.8,0,0,0-4.93-5.072l-2.8,2.8a37.63,37.63,0,0,1,4.87,5.007Zm-6.82,3.381a47.9,47.9,0,0,0-5.12-5.267l-2.73,2.6a42.368,42.368,0,0,1,5.13,5.267Zm4.81,40.966-0.78-6.893a38.27,38.27,0,0,1-10.52,1.3c-1.17,0-5.77,0-7.4-1.431a2.152,2.152,0,0,1-.84-1.755,14.41,14.41,0,0,1,.26-2.471l-6.04-.911a17.759,17.759,0,0,0-.39,3.837c0,8.843,8.25,9.233,14.54,9.233A56.926,56.926,0,0,0,1268.75,462.015Zm26.34-15.736a10.047,10.047,0,1,0,9.99,10.014A10.021,10.021,0,0,0,1295.09,446.279Zm0,3.121a6.893,6.893,0,1,1-6.95,6.893A6.893,6.893,0,0,1,1295.09,449.4Z" transform="translate(-687.531 -306.75)"/>
</svg>
